Events{4}
  Event (0,0): Actions{1}
    Action (603,1): Code[23 lines]
life = 100;

c = part_type_create();
part_type_color1(c,c_purple);
part_type_alpha3(c,1,1,0);
part_type_life(c,15,20);
part_type_speed(c,0.4,0.8,0,0);
part_type_direction(c,0,359,0,0);
part_type_shape(c,pt_shape_cloud);
part_type_size(c,0.4,0.9,0,0);

b = part_type_create();
part_type_color1(b,c_purple);
part_type_alpha3(b,1,1,0);
part_type_life(b,30,40);
part_type_speed(b,0.6,1.2,0,0);
part_type_direction(b,0,359,0,0);
part_type_sprite(b,spr_icepart,false,false,false);
part_type_size(b,0.4,0.9,0,0);
part_type_orientation(b,0,359,5,0,false);

set_destroyer( c );
set_destroyer( b );
  Event (0,1): Actions{1}
    Action (603,1): Code[5 lines]
var a;
a = instance_create(x,y,obj_smallheart);
a.vspeed = 1;

boss_drop(x,y,1,0.5,25,8,6,0,10,0,4,0);
  Event (0,3): Actions{1}
    Action (603,1): Code[8 lines]
life -= 1;
part_particles_create(global.p_sys_b,x,y,c,1);
part_particles_create(global.p_sys_b,x,y,b,1);

shake(2);

if life <= 0
  instance_destroy();
  Event (0,8): Actions{1}
    Action (603,1): Code[6 lines]
var b;
b = 100 - life;

draw_sprite_ext(spr_b9,0,x,y,1,1,0,c_white,life / 100);

draw_sprite_ext(spr_b9,0,x - b + random(2 * b),y - b + random(2 * b),1,1,choose(b,-b,0,0),c_white,life / 200);
