Events{8}
  Event (0,0): Actions{1}
    Action (603,1): Code[7 lines]
image_speed = 0;
image_xscale = -1;
can = true;

talk0 = false;
talk2 = false;
talk3 = false;
  Event (0,2): Actions{1}
    Action (603,1): Code[1 lines]
talk0 = true;
  Event (1,2): Actions{1}
    Action (603,1): Code[2 lines]
image_xscale = 1;
alarm[2] = 60;
  Event (2,2): Actions{1}
    Action (603,1): Code[1 lines]
talk2 = true;
  Event (3,2): Actions{1}
    Action (603,1): Code[1 lines]
talk3 = true;
  Event (0,3): Actions{1}
    Action (603,1): Code[12 lines]
if can and global.ability[16]
  {
  global.secret[23] = true;
  can = false;
  alarm[0] = 45;
  }
  
if distance_to_object(obj_firecageghost) < 100
  {
  hspeed = -0.4;
  image_speed = -4 / 30;
  }
  Event (2,3): Actions{1}
    Action (603,1): Code[28 lines]
if place_meeting(x,y,obj_player) and c_p_action() && !instance_number(obj_purplescreen)
  bandit_talk("The orb is yours...#You earned it.");

if talk0
  {
  bandit_talk("Awesome, now let's find a way outta here.");
  instance_create(0,0,obj_purplescreen);
  global.music = mus_ghosts;
  alarm[1] = 30;
  talk0 = false;
  }
  
if talk2
  {
  bandit_talk("Something's not right here...#...this better not be what I think it is...");
  if bandit_talkq("Whatever happens, stand back and don't be a hero.","Can do!","I'll protect you!")
    bandit_talk("You won't be able to protect me if this is what I think it is.");
  instance_create(495,90,obj_firecageghost);
  alarm[3] = 180;
  talk2 = false;
  }
  
if talk3
  {
  bandit_talk("...they said they'd catch up to me one day.");
  bandit_talk("To tell the truth I sort of forgot until just now...");
  talk3 = false;
  }
  Event (0,8): Actions{1}
    Action (603,1): Code[4 lines]
draw_sprite_ext(spr_3player1,image_index,x,y,image_xscale,1,0,c_white,1);

if can
  draw_signal(x,y - 25);
