Events{3}
  Event (0,0): Actions{1}
    Action (603,1): Code[2 lines]
image_blend = c_silver;
alarm[3] = 120;
  Event (3,2): Actions{1}
    Action (603,1): Code[1 lines]
alarm[3] = 120;
  Event (0,8): Actions{1}
    Action (603,1): Code[4 lines]
var c;
c = abs((alarm[3]/60)-1)*5;

draw_sprite(sprite_index,0,x,y+c);
