Events{4}
  Event (0,0): Actions{1}
    Action (603,1): Code[5 lines]
hspeed = choose(0.5,-0.5);
vspeed = choose(0.5,0,-0.5);
image_speed = 6 / 30;
image_angle = direction;
alarm[0] = 500 + random(700);
  Event (0,2): Actions{1}
    Action (603,1): Code[5 lines]
alarm[0] = 500 + random(700);

hspeed = choose(0.5,-0.5);
vspeed = choose(0.5,0,-0.5);
image_angle = direction;
  Event (obj_block,4): Actions{1}
    Action (603,1): Code[15 lines]
move_contact_solid(direction,ceil(speed));

if !place_free(x + sign(hspeed),y) {
  hspeed *= -1;
} else if !place_free(x,y + sign(vspeed)) {
  vspeed *= -1;
} else {
  hspeed *= -1;
  vspeed *= -1;
}

image_angle = direction;

if !place_free(x,y)
  instance_destroy();
  Event (1,7): Actions{1}
    Action (603,1): Code[17 lines]
if y < 30 || y > 450 {
  vspeed *= -1;
  if y < 30
    y += 2;
  if y > 450
    y -= 2;
}

if x < 30 || x > 600 {
  hspeed *= -1;
  if x < 30
    x += 2;
  if x > 600
    x -= 2;
}

image_angle = direction;
