Events{3}
  Event (0,0): Actions{1}
    Action (603,1): Code[2 lines]
image_speed = 0.2;
image_xscale = -1;
  Event (2,3): Actions{1}
    Action (603,1): Code[18 lines]
if place_meeting(x,y,obj_player) and c_p_action()
  {
  bandit_talk("Oh! You're here so soon!");
  if bandit_talkq("Did you have much trouble getting down here?","I barely made it.","Piece of cake.")
    bandit_talk("Heh, well I lost some tail feathers.");
    else
    bandit_talk("Well then I'm sure you'll just love what's behind this door.");
  bandit_talk("Anyways, I've heard about you...");
  bandit_talk("Word is you're running around uncharted territory causing trouble.");
  bandit_talk("Oh, don't worry, I'm not angry...#but the higher-ups are sure getting ticked.");
  if bandit_talkq("Birds are supposed to stay in SkyTown, not run around discovering crap.","That sounds boring.","What about you?")
    bandit_talk("Me? I'm not exactly gonna win any popularity contests either.");
    else
    bandit_talk("Yeah... I hear you man.#I don't like to follow the rules either.");
  bandit_talk("But anyways, we're gonna open up this here door, then go in and take down the security system of this old factory.");
  bandit_talk("So... enough talk!#Let's open the door, I'll give you a boost!");
  instance_change(obj_firecagebandit2,true);
  }
  Event (0,8): Actions{1}
    Action (603,1): Code[3 lines]
draw_sprite_ext(spr_3player1,0,x,y,image_xscale,1,0,c_white,1);

draw_signal(x,y - 25);
