Events{5}
  Event (0,0): Actions{1}
    Action (603,1): Code[30 lines]
a = 0;
alpha = 0;
vspeed = -0.3;
alarm[0] = 1;
target = -1;
tx = 0;
ty = 0;
alarm[1] = 60;
sound_play(snd_charging);

typ = part_type_create();
part_type_color1(typ,c_gold);
part_type_alpha3(typ,1,1,0);
part_type_life(typ,120,200);
part_type_speed(typ,0.5,2,0,0);
part_type_direction(typ,0,359,0,0);
part_type_shape(typ,pt_shape_star);
part_type_size(typ,8 / 64,20 / 64,0,0);

typ2 = part_type_create();
part_type_color1(typ2,c_gold);
part_type_alpha3(typ2,1,1,0);
part_type_life(typ2,20,30);
part_type_speed(typ2,1.2,3,0,0);
part_type_direction(typ2,0,359,0,0);
part_type_shape(typ2,pt_shape_star);
part_type_size(typ2,8 / 64,20 / 64,0,0);

set_destroyer( typ );
set_destroyer( typ2 );
  Event (0,2): Actions{1}
    Action (603,1): Code[7 lines]
with obj_orbholder {
  if num == obj_goldthrow.num
    obj_goldthrow.target = id;
}

tx = target.x;
ty = target.y;
  Event (1,2): Actions{1}
    Action (603,1): Code[1 lines]
move_towards_point(tx,ty,10);
  Event (obj_orbholder,4): Actions{1}
    Action (603,1): Code[8 lines]
if other.num == num {
  instance_destroy();
  global.secret[80+num] = true;
  other.image_index = 1;
  sound_play(snd_placegold);
  repeat(10) part_particles_create(global.p_sys,other.x-5+random(10),other.y-5+random(10),typ,1);
  repeat(10) part_particles_create(global.p_sys,other.x-5+random(10),other.y-5+random(10),typ2,1);
}
  Event (0,8): Actions{1}
    Action (603,1): Code[36 lines]
alpha = min(1,alpha+0.05);

a += 2;

if a >= 360
  a -= 360;

draw_set_color(c_gold);
draw_set_alpha(alpha-0.25);

//Triangle 1
draw_primitive_begin(pr_trianglelist);
draw_vertex(x,y);
draw_vertex(x + lengthdir_x(45,a - 10),y + lengthdir_y(45,a - 10));
draw_vertex(x + lengthdir_x(45,a + 10),y + lengthdir_y(45,a + 10));
draw_primitive_end();
//Triangle 2
draw_primitive_begin(pr_trianglelist);
draw_vertex(x,y);
draw_vertex(x + lengthdir_x(45,a + 80),y + lengthdir_y(45,a + 80));
draw_vertex(x + lengthdir_x(45,a + 100),y + lengthdir_y(45,a + 100));
draw_primitive_end();
//Triangle 3
draw_primitive_begin(pr_trianglelist);
draw_vertex(x,y);
draw_vertex(x + lengthdir_x(45,a + 170),y + lengthdir_y(45,a + 170));
draw_vertex(x + lengthdir_x(45,a + 190),y + lengthdir_y(45,a + 190));
draw_primitive_end();
//Triangle 4
draw_primitive_begin(pr_trianglelist);
draw_vertex(x,y);
draw_vertex(x + lengthdir_x(45,a + 260),y + lengthdir_y(45,a + 260));
draw_vertex(x + lengthdir_x(45,a + 280),y + lengthdir_y(45,a + 280));
draw_primitive_end();

draw_sprite_ext(sprite_index,0,x,y,1,1,0,c_white,alpha);
