Events{2}
  Event (0,0): Actions{1}
    Action (603,1): Code[10 lines]
typ2 = part_type_create();
part_type_color1(typ2,c_red);
part_type_alpha3(typ2,1,1,0);
part_type_life(typ2,10,15);
part_type_speed(typ2,2,3,0,0);
part_type_direction(typ2,0,359,0,0);
part_type_shape(typ2,pt_shape_star);
part_type_size(typ2,8 / 64,20 / 64,0,0);

set_destroyer( typ2 );
  Event (0,3): Actions{1}
    Action (603,1): Code[17 lines]
f = true;
with obj_darklantern {
  if !lit
    obj_1812heart.f = false;
}

if instance_number(obj_darklantern) == 0
  f = false;

if f {
  instance_destroy();
  sound_play(mus_secret);
  var a;
  a = instance_create(150,150,obj_heart);
  a.num = 56;
  part_particles_create(global.p_sys,150,150,typ2,20);
}
