Events{5}
  Event (0,0): Actions{1}
    Action (603,1): Code[7 lines]
spr = sprite_create_from_screen(0,0,630,480,false,false,false,false,0,0);
instance_deactivate_all(true);
can = true;
step = 0;
vspd = 0;
drawx = 0;
alarm[0] = 10;
  Event (0,2): Actions{1}
    Action (603,1): Code[1 lines]
step += 1;
  Event (1,2): Actions{1}
    Action (603,1): Code[3 lines]
can = false;
instance_activate_all();
room = room_lookup("rm_" + string(global.stage_x) + "_" + string(global.stage_y));
  Event (4,7): Actions{1}
    Action (603,1): Code[2 lines]
instance_destroy();
instance_create(0,0,obj_darkfade);
  Event (0,8): Actions{1}
    Action (603,1): Code[18 lines]
draw_set_color(c_black);
draw_set_alpha(1);
draw_rectangle(0,0,630,480,false);

if step == 0
  draw_sprite(spr,0,0,0);
else if step == 1 {
  vspd += 0.5;
  drawx += vspd;
  draw_sprite_part(spr,0,0,0,157.5,480,0,drawx);
  draw_sprite_part(spr,0,157.5,0,157.5,480,157.5,-drawx);
  draw_sprite_part(spr,0,315,0,157.5,480,315,drawx);
  draw_sprite_part(spr,0,472.5,0,157.5,480,472.5,-drawx);
  if drawx > 480 {
    step += 1;
    alarm[1] = 10;
  }
}
