Events{2}
  Event (0,0): Actions{1}
    Action (603,1): Code[1 lines]
img = 0;
  Event (0,8): Actions{1}
    Action (603,1): Code[10 lines]
var a,xs;
a = 465 + (445 - obj_player.y);
xs = obj_player.img_xscale;
image_index = obj_player.image_index;

if instance_number(obj_savestatue)
  draw_sprite_ext(spr_savestatue,0,obj_savestatue.x,obj_savestatue.y + 122,1,-1,0,c_white,0.3);

draw_sprite_ext(obj_player.sprite,image_index,obj_player.x,a,xs,obj_player.img_yscale * -1,obj_player.img_angle,obj_player.image_blend,0.3);
draw_sprite_ext(obj_player.sprite,image_index,obj_player.x,obj_player.y,obj_player.img_xscale,obj_player.img_yscale,obj_player.img_angle,obj_player.image_blend,obj_player.image_alpha);
