Events{3}
  Event (0,0): Actions{1}
    Action (603,1): Code[2 lines]
alarm[0] = 1;
image_speed = 0;
  Event (0,2): Actions{1}
    Action (603,1): Code[2 lines]
image_index = global.secret[80+num];
visible = true;
  Event (0,8): Actions{1}
    Action (603,1): Code[6 lines]
draw_sprite_ext(spr_orbholder,image_index,x,y,1,1,image_angle,c_white,1);

if image_index == 1 {
  image_angle -= 4;
  draw_sprite(spr_gold,0,x,y);
}
