Events{2}
  Event (0,0): Actions{2}
    Action (603,1): Code[12 lines]
can = false;

typ2 = part_type_create();
part_type_color1(typ2,c_red);
part_type_alpha3(typ2,1,1,0);
part_type_life(typ2,10,15);
part_type_speed(typ2,2,3,0,0);
part_type_direction(typ2,0,359,0,0);
part_type_shape(typ2,pt_shape_star);
part_type_size(typ2,8 / 64,20 / 64,0,0);

set_destroyer( typ2 );
    Action (604,1): Fields[0]
  Event (0,1): Actions{1}
    Action (603,1): Code[48 lines]
sound_play(snd_balloon);

part_particles_create(global.p_sys,x + 16,y + 16,typ,8);

if num == 1
  {
  with obj_balloon3
    {
    if num == 2
      can = true;
    }
  }

if num == 2 and can
  {
  with obj_balloon3
    {
    if num == 3
      can = true;
    }
  }
  
if num == 3 and can
  {
  with obj_balloon3
    {
    if num == 4
      can = true;
    }
  }
  
if num == 4 and can
  {
  with obj_balloon3
    {
    if num == 5
      can = true;
    }
  }
  
if num == 5 and can
  {
  var a;
  a = instance_create(300,180,obj_heart);
  a.num = 34;  
  sound_play(mus_secret);
  part_particles_create(global.p_sys,300,180,typ2,20);
  }
