Events{5}
  Event (0,0): Actions{1}
    Action (603,1): Code[4 lines]
image_speed = 0;
image_xscale = -1;
sprite = spr_3player1;
hspeed = -2;
  Event (0,2): Actions{1}
    Action (603,1): Code[1 lines]
sprite = spr_3player1;
  Event (2,3): Actions{1}
    Action (603,1): Code[10 lines]
if x <= 500 and hspeed != 0
  {
  image_xscale = 1;
  bandit_talk("Okay, dive-bomb onto me to bounce up!");
  bandit_talk("Don't worry, it won't hurt too bad.");
  hspeed = 0;
  }

if obj_player.vspeed == 0 and place_meeting(x,y,obj_player) and c_p_action()
  bandit_talk("Try holding JUMP right as you hit me to get the highest bounce you can.");
  Event (obj_player,4): Actions{1}
    Action (603,1): Code[7 lines]
if other.vspeed >= 7 and hspeed == 0
  {
  alarm[0] = 30;
  other.vspeed = -11;
  other.candj = true;
  sprite = spr_3player3;
  }
  Event (0,8): Actions{1}
    Action (603,1): Code[6 lines]
image_speed = hspeed * 0.07;

draw_sprite_ext(sprite,-1,x,y,image_xscale,1,0,c_white,1);
  
if obj_player.vspeed == 0
  draw_signal(x,y - 25)
