Events{4}
  Event (0,0): Actions{1}
    Action (603,1): Code[24 lines]
lit = false;

typ = part_type_create();
part_type_color2(typ,c_yellow,c_red);
part_type_alpha3(typ,1,1,0);
part_type_life(typ,5,8);
part_type_speed(typ,0.2,0.6,0,0);
part_type_direction(typ,60,120,0,0);
part_type_sprite(typ,spr_firepart,false,false,false);
part_type_size(typ,0.8,2.3,0,0);
part_type_orientation(typ,0,359,0,5,false);
part_type_gravity(typ,0.4,90);

typ2 = part_type_create();
part_type_color1(typ2,c_red);
part_type_alpha3(typ2,1,1,0);
part_type_life(typ2,10,15);
part_type_speed(typ2,2,3,0,0);
part_type_direction(typ2,0,359,0,0);
part_type_shape(typ2,pt_shape_star);
part_type_size(typ2,8 / 64,20 / 64,0,0);

set_destroyer( typ );
set_destroyer( typ2 );
  Event (0,3): Actions{1}
    Action (603,1): Code[2 lines]
if lit == true
  part_particles_create(global.p_sys_b,x - 1,y - 15,typ,1);
  Event (obj_player,4): Actions{1}
    Action (603,1): Code[20 lines]
if other.vspeed < 7
  exit;

var a;

if room == rm_12_11 and lit == false
  {
  lit = true;
  with obj_torch_light
    {
    if lit == false
      exit;
    }
  sound_play(mus_secret);
  a = instance_create(510,195,obj_heart);
  a.num = 3;
  part_particles_create(global.p_sys,510,195,typ2,20);
  }
  
lit = true;
  Event (obj_playershot,4): Actions{1}
    Action (603,1): Code[17 lines]
var a;

if room == rm_12_11 and lit == false
  {
  lit = true;
  with obj_torch_light
    {
    if lit == false
      exit;
    }
  sound_play(mus_secret);
  a = instance_create(510,195,obj_heart);
  a.num = 3;
  part_particles_create(global.p_sys,510,195,typ2,20);
  }
  
lit = true;
