Events{3}
  Event (0,0): Actions{1}
    Action (603,1): Code[2 lines]
alarm[0] = 1;
count = 0;
  Event (0,2): Actions{1}
    Action (603,1): Code[104 lines]
var a;

if room == rm_30_23 {

  repeat(2 + global.difficulty) {
    do {
      a = floor(random(26.999));
    } until (!place_meeting(75+(15*a),60,obj_enemy30))
    a = instance_create(75+(15*a),60,obj_enemy30);
    a.vspeed = 1;
  }
  alarm[0] = 20;
  
} else if room == rm_29_23 {

  a = instance_create(315,255,obj_enemy30);
  a.vspeed = 2;
  alarm[0] = 50 - 3*global.difficulty;
  
} else if room == rm_26_22 {

  if global.difficulty > 0 {
    a = instance_create(112,322,obj_enemy30);
    a.hspeed = 2;
    a = instance_create(217,157,obj_enemy30);
    a.hspeed = 3;
    alarm[0] = 40 - 3*global.difficulty;
  }

} else if room == rm_29_22 {

  //172, 187, 202, 217, 232

  count += 1;

  if global.difficulty == 1 {
    alarm[0] = 30;
    if count == 1 {
      instance_create(610,172,obj_enemy30);
      instance_create(610,232,obj_enemy30);
    } else if count == 2 {
      instance_create(610,187,obj_enemy30);
      instance_create(610,202,obj_enemy30);
      instance_create(610,217,obj_enemy30);
      count = choose(2,2,3);
    } else if count == 3 {
      instance_create(610,172,obj_enemy30);
      instance_create(610,232,obj_enemy30);
    } else if count == 4 {
      instance_create(610,172,obj_enemy30);
      instance_create(610,187,obj_enemy30);
      instance_create(610,202,obj_enemy30);
      instance_create(610,217,obj_enemy30);
    } else if count == 5 {
      instance_create(610,232,obj_enemy30);
      instance_create(610,187,obj_enemy30);
      instance_create(610,202,obj_enemy30);
      instance_create(610,217,obj_enemy30);
      count = choose(0,0,0,1);
    }
  } else if global.difficulty == 2 || global.difficulty == 3 {
    alarm[0] = 25;
    if count == 1 {
      instance_create(610,172,obj_enemy30);
      instance_create(610,232,obj_enemy30);
      instance_create(610,217,obj_enemy30);
    } else if count == 2 {
      instance_create(610,187,obj_enemy30);
      instance_create(610,202,obj_enemy30);
      instance_create(610,217,obj_enemy30);
      count = choose(2,2,3,1);
    } else if count == 3 {
      instance_create(610,172,obj_enemy30);
      instance_create(610,232,obj_enemy30);
      instance_create(610,217,obj_enemy30);
    } else if count == 4 {
      instance_create(610,172,obj_enemy30);
      instance_create(610,187,obj_enemy30);
      instance_create(610,202,obj_enemy30);
      instance_create(610,217,obj_enemy30);
    } else if count == 5 {
      instance_create(610,232,obj_enemy30);
      instance_create(610,187,obj_enemy30);
      instance_create(610,202,obj_enemy30);
      instance_create(610,217,obj_enemy30);
      count = choose(0,0,0,1,2);
    }
  }
  obj_enemy30.hspeed = -4;

} else if room == rm_30_21 {
  
  alarm[1] = 40 - (5*global.difficulty);
  
  for (a=0; a<2; a+=1) {
    instance_create(157,82+(a*150),obj_enemy30);
    instance_create(157,97+(a*150),obj_enemy30);
    instance_create(157,112+(a*150),obj_enemy30);
    instance_create(157,127+(a*150),obj_enemy30);
  }
  
  obj_enemy30.hspeed = 3;

}
  Event (1,2): Actions{1}
    Action (603,1): Code[10 lines]
alarm[0] = 40 - (5*global.difficulty);
  
for (a=0.5; a<=2; a+=1) {
  instance_create(157,82+(a*150),obj_enemy30);
  instance_create(157,97+(a*150),obj_enemy30);
  instance_create(157,112+(a*150),obj_enemy30);
  instance_create(157,127+(a*150),obj_enemy30);
}
  
obj_enemy30.hspeed = 3;
