Events{10}
  Event (0,0): Actions{1}
    Action (603,1): Code[37 lines]
draw2 = 180;
draw3 = 180;
draw4 = 180;
life = 4;
set_music(mus_boss);
rspeed = 2.2 - (life * .5) + (global.difficulty * .3);
rotate = 90;
angle = 0;
gun2 = 0;
gun3 = 0;
gun4 = 0;
stop = false;
flash = false;
alarm[0] = 450;
alarm[3] = 150 - ((4 - life) * 10) - (global.difficulty * 10);
instance_create(x,y,obj_b7_laser1);

typ3 = part_type_create();
part_type_color1(typ3,c_red);
part_type_alpha3(typ3,1,1,0);
part_type_life(typ3,10,15);
part_type_speed(typ3,2,3,0,0);
part_type_direction(typ3,0,359,0,0);
part_type_shape(typ3,pt_shape_star);
part_type_size(typ3,8 / 64,20 / 64,0,0);

typ = part_type_create();
part_type_color1(typ,c_yellow);
part_type_alpha3(typ,1,1,0);
part_type_life(typ,4,8);
part_type_speed(typ,3,4,0,0);
part_type_direction(typ,0,360,0,0);
part_type_shape(typ,pt_shape_square);
part_type_size(typ,1 / 64,3 / 64,0,0);

set_destroyer( typ );
set_destroyer( typ3 );
  Event (0,2): Actions{1}
    Action (603,1): Code[21 lines]
stop = true;
alarm[1] = 150;

if global.difficulty >= 2
  instance_create(choose(210,420),270,obj_energyball);
  else
  {
  instance_create(210,270,obj_energyball);
  instance_create(420,270,obj_energyball);
  }

obj_b7_laser1.image_alpha -= 0.01;
if instance_number(obj_b7_laser2)
  obj_b7_laser2.image_alpha -= 0.01;
if instance_number(obj_b7_laser3)
  obj_b7_laser3.image_alpha -= 0.01;
if instance_number(obj_b7_laser4)
  obj_b7_laser4.image_alpha -= 0.01;
  
with obj_b7_ball
  instance_destroy();
  Event (1,2): Actions{1}
    Action (603,1): Code[17 lines]
stop = false;
alarm[0] = 450 + ((4 - life) * 100);
instance_create(x,y,obj_b7_laser1);
if life <= 3
  instance_create(x,y,obj_b7_laser2);
if life <= 2
  instance_create(x,y,obj_b7_laser3);
if life <= 1
  instance_create(x,y,obj_b7_laser4);
  
flash = false;
visible = true;
  
with obj_energyball
  instance_destroy();
  
alarm[3] = 150 - ((4 - life) * 10) - (global.difficulty * 10);
  Event (2,2): Actions{1}
    Action (603,1): Code[5 lines]
if flash
  {
  alarm[2] = 3;
  visible = !visible;
  }
  Event (3,2): Actions{1}
    Action (603,1): Code[5 lines]
if !stop
  {
  alarm[3] = 150 - ((4 - life) * 10) - (global.difficulty * 10);
  instance_create(x,y,obj_b7_ball);
  }
  Event (0,3): Actions{1}
    Action (603,1): Code[44 lines]
var a;

if life <= 3 and gun2 < 1
  {
  gun2 += 0.1;
  gun2 = min(gun2,1);
  }
  
if life <= 2 and gun3 < 1
  {
  gun3 += 0.1;
  gun3 = min(gun3,1);
  }
  
if life <= 1 and gun4 < 1
  {
  gun4 += 0.1;
  gun4 = min(gun4,1);
  }
  
rotate -= rspeed;
angle += rspeed;

if !stop and rspeed < (2.2 - (life * .5) + (global.difficulty * .2))
  {
  rspeed += 0.25;
  rspeed = min(rspeed,(2.2 - (life * .5) + (global.difficulty * .2)));
  }
  
if !stop
  {
  repeat(3)
    {
    a = random(360);
    part_particles_create(global.p_sys_b,x + lengthdir_x(25,a),y + lengthdir_y(25,a),typ,1);
    }
  }
  
if stop and rspeed > 0
  {
  rspeed -= 0.25;
  rspeed = max(rspeed,0);
  }
  
  Event (obj_player,4): Actions{1}
    Action (603,1): Code[90 lines]
var a;

if !stop
  {
  hurt(60);
  with other
    {
    a = false;
    if place_meeting(xprevious,yprevious + vspeed,other)
      {
      a = true;
      vspeed = 0;
      y = yprevious;
      }
    if place_meeting(xprevious + hspeed,yprevious,other)
      {
      a = true;
      hspeed = 0;
      x = xprevious;
      }
    if !a
      {
      speed = 0;
      x = xprevious;
      y = yprevious;
      }
    }
  }
  else
  {
  with other
    {
    if place_meeting(xprevious,yprevious + abs(vspeed),other)
      {
      if vspeed >= 7
        {
        if !other.flash
          {
          part_particles_create(global.p_sys,other.x,other.y+8,other.typ3,6);
          sound_play(snd_hitboss);
          shake(5);
          other.life -= 1;
          other.alarm[1] = 30;
          other.flash = true;
          other.alarm[2] = 3;
          if other.life == 1
            sound_background_tempo(1.3);
          if other.life == 0
            {
            with other
              {
              a = instance_create(x,y,obj_b7_dead);
              a.angle = angle;
              a.rotate = rotate;
              instance_destroy();
              }
            }
          }
        player_bounce();
        }
        else
        {
        vspeed = -global.st_djh;
        candj = true;
        }
      }
      else
      {
      a = false;
      if place_meeting(xprevious,yprevious + vspeed,other)
        {
        a = true;
        vspeed = 0;
        y = yprevious;
        }
      if place_meeting(xprevious + hspeed,yprevious,other)
        {
        a = true;
        hspeed = 0;
        x = xprevious;
        }
      if !a
        {
        speed = 0;
        x = xprevious;
        y = yprevious;
        }
      }
    }
  }
  Event (obj_playershot,4): Actions{1}
    Action (203,1): Applies(other) Fields[0]
  Event (obj_playershot2,4): Actions{1}
    Action (203,1): Applies(other) Fields[0]
  Event (0,8): Actions{1}
    Action (603,1): Code[48 lines]
var a; 


//Guns
draw_sprite_ext(spr_b7,4,x,y,1,1,rotate,c_white,1);
draw_sprite_ext(spr_b7,4,x,y,gun2,gun2,rotate + 180,c_white,1);
draw_sprite_ext(spr_b7,4,x,y,gun3,gun3,rotate + 90,c_white,1);
draw_sprite_ext(spr_b7,4,x,y,gun4,gun4,rotate + 270,c_white,1);

//Center
draw_sprite_ext(spr_b7,0,x,y,1,1,angle,c_white,1);

//Shells
if life >= 2
  draw_sprite(spr_b7,3,x,y);
  else
  {
  if draw2 > 0
    {
    draw2 -= 1;
    a = draw2 / 180;
    draw_sprite_ext(spr_b7,3,x,y + (180 - draw2),1,1,0,c_white,a);
    }
  }
  
if life >= 3
  draw_sprite(spr_b7,2,x,y);
  else
  {
  if draw3 > 0
    {
    draw3 -= 1;
    a = draw3 / 180;
    draw_sprite_ext(spr_b7,2,x,y + (180 - draw3),1,1,0,c_white,a);
    }
  }

if life >= 4
  draw_sprite(spr_b7,1,x,y);
  else
  {
  if draw4 > 0
    {
    draw4 -= 1;
    a = draw4 / 180;
    draw_sprite_ext(spr_b7,1,x,y + (180 - draw4),1,1,0,c_white,a);
    }
  }
