Events{9}
  Event (0,0): Actions{1}
    Action (603,1): Code[43 lines]
instance_deactivate_all(true);
instance_activate_object(obj_keycon);
particles_clear();

global.music = mus_blackjack;

obj_keycon.kp_action = false;
obj_keycon.kl_action = true;

cards = sprite_add(directory+"\cards.gif",0,false,true,false,false,48,64);
deck = ds_list_create();
bg = background_add(directory+"\misc10.PNG",false,false,false);

event_perform(ev_other,ev_user0); //Shuffle cards

mode = 0;
menu = 0;
bet = 0;
amount = 52;
player_total = 0;
dealer_total = 0;
check = 0;
player_cards = 0;
dealer_cards = 0;

//Modes:
//0 -- Place bet
//1 -- Player turn
//2 -- Dealer turn

typ = part_type_create();
part_type_sprite(typ,spr_crystal,false,false,false);
part_type_alpha3(typ,1,1,0)
part_type_color1(typ,c_pink);
part_type_orientation(typ,0,0,5,4,false);
part_type_life(typ,10,20);
part_type_speed(typ,4,6,0,0);
part_type_direction(typ,230,310,0,0);
part_type_gravity(typ,0.4,270);

set_destroyer( typ );

alarm[0] = 30;
  Event (0,1): Actions{1}
    Action (603,1): Code[6 lines]
with obj_mini4card instance_destroy();
instance_activate_all();
background_delete(bg);
sprite_delete(cards);
ds_list_destroy(deck);
global.music = mus_skytown;
  Event (0,2): Actions{1}
    Action (603,1): Code[2 lines]
alarm[0] = 30;
global.stat_clock += 1;
  Event (0,3): Actions{1}
    Action (603,1): Code[10 lines]
if global.drawcrystal > global.crystal {
  global.drawcrystal = max(global.drawcrystal-3,global.crystal);
  sound_play(snd_crystal);
  part_particles_create(global.p_sys,525,14,typ,1);
}

if global.drawcrystal < global.crystal {
  global.drawcrystal = min(global.drawcrystal+3,global.crystal);
  sound_play(snd_crystal);
}
  Event (1,3): Actions{1}
    Action (603,1): Code[2 lines]
check_music();
check_gp();
  Event (10,7): Actions{1}
    Action (603,1): Code[16 lines]
ds_list_clear(deck);

var a;

repeat(2) ds_list_add(deck,1);
  
for (a=2; a<=9; a+=1) {
  repeat(4) ds_list_add(deck,a);
}
    
repeat(16) ds_list_add(deck,10);

repeat(2) ds_list_add(deck,11);

ds_list_shuffle(deck);
amount = 52;
  Event (11,7): Actions{1}
    Action (603,1): Code[14 lines]
if amount == 0
  event_perform(ev_other,ev_user0);

var a,b;
a = ds_list_find_value(deck,0);
ds_list_delete(deck,0);

b = instance_create(60,297-(amount*3),obj_mini4card);
b.value = a;
b.type = 0;

amount -= 1;
player_total += a;
player_cards += 1;
  Event (12,7): Actions{1}
    Action (603,1): Code[14 lines]
if amount == 0
  event_perform(ev_other,ev_user0);

var a,b;
a = ds_list_find_value(deck,0);
ds_list_delete(deck,0);

b = instance_create(60,297-(amount*3),obj_mini4card);
b.value = a;
b.type = 1;

amount -= 1;
dealer_total += a;
dealer_cards += 1;
  Event (0,8): Actions{1}
    Action (603,1): Code[156 lines]
draw_background(bg,0,0);

draw_set_font(fnt_title);
draw_set_color(c_black);
draw_set_alpha(1);
draw_set_halign(fa_center);
draw_set_valign(fa_center);
draw_text(315,30,"BlackJack");

//Draw deck
var a;
for (a=0; a<amount; a+=1)
  draw_sprite(cards,0,60,300-(3*a));

if mode == 0 {

  if instance_number(obj_mini4card) > 0
    obj_mini4card.hspeed = -20;
    
  //Draw menu
  draw_set_alpha(0.8);
  draw_rectangle(240,120,360,320,false);
  draw_set_font(fnt_draw);
  draw_set_color(c_white);
  draw_set_alpha(0.4 + (menu==0)*0.6);
  draw_text(300,140,"Quit");
  draw_set_alpha(0.4 + (menu==1)*0.6);
  draw_text(300,180,"Bet 5");
  draw_set_alpha(0.4 + (menu==2)*0.6);
  draw_text(300,220,"Bet 10");
  draw_set_alpha(0.4 + (menu==3)*0.6);
  draw_text(300,260,"Bet 50");
  draw_set_alpha(0.4 + (menu==4)*0.6);
  draw_text(300,300,"Bet 100");
  
  //Draw rules
  draw_set_color(c_black);
  draw_set_alpha(1);
  draw_text_ext(495,200,"  Get as close to 21 as you can without going over.  Player wins ties.",-1,250);
  draw_set_color(c_white);
  
  //Controls
  if c_p_down()
    menu = min(menu+1,4);
    
  if c_p_up()
    menu = max(menu-1,0);
    
  if (c_p_action() || c_p_pause() || c_p_shoot()) && (menu != 1 || global.crystal >= 5)
  && (menu != 2 || global.crystal >= 10) && (menu != 3 || global.crystal >= 50) && (menu != 4 || global.crystal >= 100) {
    if menu == 0
      instance_destroy();
    else {
      mode = 1;
      if menu == 1 bet = 5;
      if menu == 2 bet = 10;
      if menu == 3 bet = 50;
      if menu == 4 bet = 100;
      global.crystal -= bet;
      player_total = 0;
      dealer_total = 0;
      menu = 0;
      player_cards = 0;
      dealer_cards = 0;
      check = 0;
      event_perform(ev_other,ev_user1); //Hit
    }
  }

} else if mode == 1 {
    
  if check == 1 {
    check = 2;
    if player_total > 21 {
      show_talk2("Player busts.#House wins.");
      mode = 0;
    } else if player_total == 21 {
      show_talk2("Player hits 21.#Automatic win.#" + string(bet*2) + " crystals in winnings.");
      global.crystal += bet*2;
      mode = 0;
    } else if player_cards >= 5 {
      show_talk2("Player hits 5 cards.#Automatic win.#" + string(bet*2) + " crystals in winnings.");
      global.crystal += bet*2;
      mode = 0;
    }
  }
  
  if check == 2 {
    draw_set_alpha(0.8);
    draw_rectangle(340,120,460,200,false);
    draw_set_font(fnt_draw);
    draw_set_color(c_white);
    draw_set_alpha(0.4 + (menu==0)*0.6);
    draw_text(400,140,"stay");
    draw_set_alpha(0.4 + (menu==1)*0.6);
    draw_text(400,180,"Hit Me");
    
    if c_p_down()
      menu = 1;
      
    if c_p_up()
      menu = 0;
      
    if c_p_action() || c_p_pause() || c_p_shoot() {
      if menu == 1 {
        check = 0;
        event_perform(ev_other,ev_user1);
      } else {
        mode = 2;
        dealer_total = 0;
        event_perform(ev_other,ev_user2);
        check = 0;
      }
    }
  }
    

} else if mode == 2 {

  if check == 1 {
    check = 0;
    if dealer_total > 21 {
      show_talk2("Dealer busts.#Player wins.#" + string(bet*2) + " crystals in winnings.");
      global.crystal += bet*2;
      mode = 0;
    } else if dealer_cards >= 5 {
      show_talk2("Dealer hits 5 cards.#Automatic lose.");
      mode = 0;
    } else if dealer_total <= player_total && dealer_total < 21 {
      event_perform(ev_other,ev_user2);
    } else {
      if dealer_total > player_total {
        show_talk2("Dealer's " + string(dealer_total) + " beats player's " + string(player_total) + ".#House wins.");
        mode = 0;
      } else if dealer_total == player_total {
        show_talk2("Dealer and player tie at " + string(player_total) + "#Player wins ties.#" + string(bet*2) + " crystals in winnings.");
        global.crystal += bet*2;
        mode = 0;
      } else {
        show_talk2("Player's " + string(player_total) + " beats dealer's " + string(dealer_total) + ".#Player wins.#" + string(bet*2) + " crystals in winnings.");
        global.crystal += bet*2;
        mode = 0;
      }
    }
  }  

}

//Draw crystals
draw_set_font(fnt_draw);
draw_set_color(c_white);
draw_set_halign(fa_left);
draw_set_alpha(1);
draw_sprite_ext(spr_wbox100,0,513,5,1,1,0,c_black,1);
draw_sprite_ext(spr_crystal,0,525,14,1,1,0,c_pink,1);
draw_text(546,14,string(global.drawcrystal));
