Events{4}
  Event (0,0): Actions{1}
    Action (603,1): Code[2 lines]
vspeed = 6;
image_blend = c_pink;
  Event (obj_mini1_player,4): Actions{1}
    Action (603,1): Code[15 lines]
with other
  {

if !hur and !obj_mini1_play.m_turbo
  {
  sound_play(snd_c_hurt);
  hur = true;
  alarm[1] = 60;
  alarm[2] = 5;
  obj_mini1_play.life -= 1;
  }
  
  }
  
instance_destroy();
  Event (obj_mini1_enemy,4): Actions{1}
    Action (603,1): Code[13 lines]
if other.image_blend == c_red
  {
  part_type_color1(obj_mini_1.z,c_red);
  part_particles_create(global.p_sys,other.x,other.y,obj_mini_1.z,5);
  }
  else
  {
  part_type_color1(obj_mini_1.z,c_lime);
  part_particles_create(global.p_sys,other.x,other.y,obj_mini_1.z,5);
  }
  
with other
  instance_destroy();
  Event (0,7): Actions{1}
    Action (203,1): Fields[0]
