Events{7}
  Event (0,0): Actions{1}
    Action (603,1): Code[33 lines]
sound_restore(snd_c_hit1);
sound_restore(snd_c_hit2);
sound_restore(snd_c_hit3);
sound_restore(snd_c_hit4);
sound_restore(snd_c_hit5);
sound_restore(snd_c_hurt);
sound_restore(snd_c_elife);
sound_restore(snd_c_turbo);
sound_restore(snd_c_shoot);

instance_deactivate_all(true);
instance_activate_object(obj_keycon);
can = false;
instance_create(0,0,obj_mini1_intro);
bg = background_add(directory+"\misc2.PNG",true,false,false);
background_index[2] = bg;
background_visible[2] = true;
sound_stop_all();
sound_play(mus_startup);
alarm[0] = 5;
particles_clear();
alarm[1] = 30;

z = part_type_create();
part_type_alpha1(z,1);
part_type_life(z,12,25);
part_type_speed(z,2,5,0,0);
part_type_direction(z,0,360,0,0);
part_type_shape(z,pt_shape_line);
part_type_size(z,7 / 64,14 / 64,0,0);
part_type_orientation(z,0,360,-5,0,0);

set_destroyer( z );
  Event (0,1): Actions{1}
    Action (603,1): Code[16 lines]
background_delete(bg);

if global.mini1_score[1] > 17500 && !global.heart[52] && !position_meeting(510,300,obj_heart) {
  a = instance_create(510,300,obj_heart);
  a.num = 52;
}

sound_discard(snd_c_hit1);
sound_discard(snd_c_hit2);
sound_discard(snd_c_hit3);
sound_discard(snd_c_hit4);
sound_discard(snd_c_hit5);
sound_discard(snd_c_hurt);
sound_discard(snd_c_elife);
sound_discard(snd_c_turbo);
sound_discard(snd_c_shoot);
  Event (0,2): Actions{1}
    Action (603,1): Code[1 lines]
can = true;
  Event (1,2): Actions{1}
    Action (603,1): Code[2 lines]
alarm[1] = 30;
global.stat_clock += 1;
  Event (0,3): Actions{1}
    Action (603,1): Code[35 lines]
if !sound_isplaying(mus_startup) and !sound_isplaying(mus_computer)
and instance_number(obj_mini1_menu) and !global.mute {
  if (global.last_music != -1) {
    sound_stop(global.last_music);
  }
  sound_loop(mus_computer);
  global.last_music = mus_computer;
}
  
if sound_isplaying(mus_computer) and !instance_number(obj_mini1_menu)
  sound_stop(mus_computer);
  
if (c_p_pause() or keyboard_check_pressed(vk_escape))
and !instance_number(obj_mini1_gameover)
  {
  if !instance_number(obj_mini1_play)
    {
    sound_stop(mus_startup);
    with obj_mini1_con
      instance_destroy();
    instance_destroy();
    instance_activate_all();
    background_visible[2] = false;
    obj_keycon.kl_pause = true;
    obj_keycon.kp_pause = false;
    }
    else
    {
    with obj_mini1_con
      instance_destroy();
    instance_create(0,0,obj_mini1_menu);
    part_particles_clear(global.p_sys);
    part_particles_clear(global.p_sys_b);
    }
  }
  Event (1,3): Actions{1}
    Action (603,1): Code[1 lines]
check_gp();
  Event (0,8): Actions{1}
    Action (603,1): Code[3 lines]
draw_set_alpha(1);
draw_set_color(c_black);
draw_rectangle(0,0,630,480,false);
