Events{1}
  Event (0,8): Actions{1}
    Action (603,1): Code[47 lines]
draw_set_color(c_lime);
draw_set_font(fnt_computerL);
draw_set_halign(fa_center);
draw_set_valign(fa_center);
draw_text(315,200,"Game Over!");
if obj_mini1_play.m_peak > global.mini1_score[1]
  draw_text(315,240,"New Top Score!");

draw_set_font(fnt_computerS);
draw_text(315,220,"Peak Score: " + string(obj_mini1_play.m_peak));
draw_text(315,280,"Press ACTION to exit");

if c_p_action() or c_p_pause()
  {
  var a;
  a = obj_mini1_play.m_peak;
  
  if a > global.mini1_score[1] {
    global.mini1_score[5] = global.mini1_score[4];
    global.mini1_score[4] = global.mini1_score[3];
    global.mini1_score[3] = global.mini1_score[2];
    global.mini1_score[2] = global.mini1_score[1];
    global.mini1_score[1] = a;
  } else if a > global.mini1_score[2] {
    global.mini1_score[5] = global.mini1_score[4];
    global.mini1_score[4] = global.mini1_score[3];
    global.mini1_score[3] = global.mini1_score[2];
    global.mini1_score[2] = a;
  } else if a > global.mini1_score[3] {
    global.mini1_score[5] = global.mini1_score[4];
    global.mini1_score[4] = global.mini1_score[3];
    global.mini1_score[3] = a;
  } else if a > global.mini1_score[4] {
    global.mini1_score[5] = global.mini1_score[4];
    global.mini1_score[4] = a;
  } else if a > global.mini1_score[5] {
    global.mini1_score[5] = a;
  }
  
  with obj_mini1_con
    instance_destroy();
  instance_create(0,0,obj_mini1_menu);
  obj_keycon.kp_action = false;
  obj_keycon.kl_action = true;
  obj_keycon.kp_pause = false;
  obj_keycon.kl_pause = true;
  }
