Events{9}
  Event (0,0): Actions{1}
    Action (603,1): Code[20 lines]
speed = 6;
if instance_number(obj_b5_shot2) == 1
  direction = 45;
  else
  direction = 135;
can = false;
alarm[0] = 30;
angle = 0;

a = part_type_create();
part_type_color1(a,c_white);
part_type_alpha3(a,1,1,0);
part_type_life(a,10,15);
part_type_speed(a,3,5,0,0);
part_type_gravity(a,0.5,270);
part_type_direction(a,40,140,0,0);
part_type_sprite(a,spr_b5_shot,false,false,false);
part_type_size(a,8 / 32,16 / 32,0,0);

dest = set_destroyer( a );
  Event (0,1): Actions{1}
    Action (603,1): Code[3 lines]
part_particles_create(global.p_sys,x,y,a,8);

dest.alarm[0] = 20;
  Event (0,2): Actions{1}
    Action (603,1): Code[1 lines]
can = true;
  Event (0,3): Actions{1}
    Action (603,1): Code[7 lines]
angle += 5;

if place_meeting(x,y,obj_b5) and place_meeting(xprevious,yprevious,obj_b5)
  {
  can = false;
  alarm[0] = 30;
  }
  Event (obj_block,4): Actions{1}
    Action (603,1): Code[2 lines]
move_contact_all(direction,speed);
move_bounce_solid(false);
  Event (obj_player,4): Actions{1}
    Action (603,1): Code[1 lines]
hurt(40);
  Event (obj_playershot,4): Actions{1}
    Action (603,1): Code[3 lines]
if sign(other.hspeed) != sign(hspeed)
  hspeed = -hspeed;
with other instance_destroy();
  Event (obj_b5,4): Actions{1}
    Action (603,1): Code[4 lines]
if can {
  move_contact_all(direction,speed);
  move_bounce_all(false);
}
  Event (0,8): Actions{1}
    Action (603,1): Code[1 lines]
draw_sprite_ext(sprite_index,0,x,y,1,1,angle,c_white,1);
