Events{2}
  Event (0,0): Actions{1}
    Action (603,1): Code[12 lines]
typ = part_type_create();
part_type_color2(typ,c_yellow,c_red);
part_type_alpha3(typ,1,1,0);
part_type_life(typ,8,10);
part_type_speed(typ,0.2,0.6,0,0);
part_type_direction(typ,10,170,0,0);
part_type_sprite(typ,spr_firepart,false,false,false);
part_type_size(typ,0.8,2.3,0,0);
part_type_orientation(typ,0,359,0,5,false);
part_type_gravity(typ,0.3,90);

set_destroyer( typ );
  Event (0,3): Actions{1}
    Action (603,1): Code[15 lines]
if instance_number(obj_b6) == 1
  {
  if obj_b6.life >= num
    part_particles_create(global.p_sys_b,x - 2 + random(1.5),y - 10,typ,1);
  }
  else
  {
  if instance_number(obj_b6intro) == 1
    part_particles_create(global.p_sys_b,x - 2 + random(1.5),y - 10,typ,1);
    else
    {
    if instance_number(obj_b6eye) and num == 1
      part_particles_create(global.p_sys_b,x - 2 + random(1.5),y - 10,typ,1);
    }
  }
