Events{7}
  Event (0,0): Actions{1}
    Action (603,1): Code[18 lines]
alarm[0] = 1;
speed = 5;
if instance_number(obj_b6)
  life = 5 - (obj_b6.life);
  else
  life = 3;
life += global.difficulty;

typ = part_type_create();
part_type_color1(typ,c_red);
part_type_alpha3(typ,1,1,0);
part_type_life(typ,8,10);
part_type_speed(typ,0.5,2,0,0);
part_type_direction(typ,0,359,0,0);
part_type_shape( typ, pt_shape_square );
part_type_size( typ, 1/64, 3/64, 0, 0 );

dest = set_destroyer( typ );
  Event (0,1): Actions{1}
    Action (603,1): Code[3 lines]
part_particles_create(global.p_sys,x,y,typ,10);

dest.alarm[0] = 12;
  Event (0,2): Actions{1}
    Action (603,1): Code[2 lines]
image_angle = direction;
visible = true;
  Event (obj_block,4): Actions{1}
    Action (603,1): Code[9 lines]
life -= 1;
if life == 0
  instance_destroy();
  else
  {
  move_contact_solid(direction,speed);
  move_bounce_solid(false);
  image_angle = direction;
  }
  Event (obj_player,4): Actions{1}
    Action (603,1): Code[2 lines]
instance_destroy();
hurt(35);
  Event (obj_upblock,4): Actions{1}
    Action (603,1): Code[12 lines]
if vspeed < 0
  exit;

life -= 1;
if life == 0
  instance_destroy();
  else
  {
  move_contact_all(direction,speed);
  move_bounce_all(false);
  image_angle = direction;
  }
  Event (0,7): Actions{1}
    Action (203,1): Fields[0]
