Events{8}
  Event (0,0): Actions{1}
    Action (603,1): Code[22 lines]
instance_deactivate_all(true);
instance_activate_object(obj_keycon);
particles_clear();

bgc = background_color;
background_color = make_color(40,0,40);
c2 = make_color(160,0,160);
c3 = make_color(255,0,255);
background_visible[1] = false;

background_showcolor = true;

global.music = mus_puzzle;

alarm[0] = 1;
cx = 0;
cy = 0;
cmode = 0;
cblock = -1;
alpha = 0;

alarm[1] = 30;
  Event (0,1): Actions{1}
    Action (603,1): Code[9 lines]
instance_activate_all();
with obj_puzz_wall instance_destroy();
with obj_puzz_block instance_destroy();
with obj_puzz_x instance_destroy();
global.music = music;
obj_keycon.kp_pause = false;
obj_keycon.kl_pause = true;
background_visible[1] = true;
background_color = bgc;
  Event (0,2): Actions{1}
    Action (603,1): Code[20 lines]
if num == 31
  puzz = "1111111111111111111111000000111000220001100100200110000000011000xx0001110000001111111111111111111111";
  //------1---------2---------3---------4---------5---------6---------7---------8---------9---------0---------
  
if num == 33
  puzz = "00001000010000000201000000000100000000011x0000001100000000010000000021000000000100001000111111111111";
  
if num == 34
  puzz = "1100000000100000000010x000000000020020000000000000000000000000020020001000000x011x00000001100000x011";
  
if num == 35
  puzz = "00000000000000000000002000020000000000000000000000000000000000000000000x0000020000000000000000000000";
  
if num == 38
  puzz = "0100000010002000000000000000200000000x00000000000000000000000020000000000000020000000000000000000000";
  
if num == 74
  puzz = "0000000000000100020000000000010000000000000000000000000000x00000000000000000002002000000000000000000";

event_perform(ev_other,ev_user0);
  Event (1,2): Actions{1}
    Action (603,1): Code[2 lines]
alarm[1] = 30;
global.stat_clock += 1;
  Event (0,3): Actions{1}
    Action (603,1): Code[76 lines]
if c_p_pause() && cmode != 3 {
  instance_destroy();
  exit;
}

if cmode == 0 {
  if c_p_right()
    cx = min(cx+1,9);
  if c_p_left()
    cx = max(cx-1,0); 
  if c_p_up()
    cy = max(cy-1,0); 
  if c_p_down()
    cy = min(cy+1,9);
  if c_p_shoot()
    event_perform(ev_other,ev_user0);
}

if c_p_action() {
  if cmode == 0 && position_meeting(165 + (cx*16),160 + (cy*16),obj_puzz_block) {
    var a;
    a = instance_position(165 + (cx*16),160 + (cy*16),obj_puzz_block);
    cblock = a;
    cmode = 1;
  } else if cmode != 3 && cmode != 2
    cmode = 0;
}

if cmode == 1 {
  if c_p_right() && !position_meeting(cblock.x+17,cblock.y,obj_puzz_wall) {
    cblock.hspeed = 4;
    cmode = 2;
  } else if c_p_left() && !position_meeting(cblock.x-2,cblock.y,obj_puzz_wall) {
    cblock.hspeed = -4;
    cmode = 2;
  } else if c_p_up() && !position_meeting(cblock.x,cblock.y-2,obj_puzz_wall) {
    cblock.vspeed = -4;
    cmode = 2;
  } else if c_p_down() && !position_meeting(cblock.x,cblock.y+17,obj_puzz_wall) {
    cblock.vspeed = 4;
    cmode = 2;
  }
}

if cmode == 3 {
  alpha += 0.03;
  if alpha >= 2 {
    instance_activate_all();
    global.secret[num] = true;
    with obj_treasure {
      if num == obj_puzzle.num {
        var a;
        a = instance_create(x+22,y-50,obj_heart);
        a.num = num2;
        instance_destroy();
        repeat(10) {
          a = instance_create(x+22,y+6,obj_crystal1);
          a.hspeed = -2+random(4);
          a.gravity = 0.4;
        }
        repeat(5) {
          a = instance_create(x+22,y+6,obj_crystal5);
          a.hspeed = -2+random(4);
          a.gravity = 0.4;
        }
        repeat(2) {
          a = instance_create(x+22,y+6,obj_crystal10);
          a.hspeed = -2+random(4);
          a.gravity = 0.4;
        }
      }
    }
    instance_create(0,0,obj_puzzle_fade);
    instance_destroy();
  }
}
  Event (1,3): Actions{1}
    Action (603,1): Code[2 lines]
check_music();
check_gp();
  Event (10,7): Actions{1}
    Action (603,1): Code[28 lines]
with obj_puzz_wall instance_destroy();
with obj_puzz_block instance_destroy();
with obj_puzz_x instance_destroy();
  
var ax,ay,a,s;
s = puzz;
for (ay=0; ay<10; ay+=1) {
  for (ax=0; ax<10; ax+=1) {
    a = string_char_at(s,1);
    s = string_delete(s,1,1);
    if a == "1"
      instance_create(165 + (ax*16),160 + (ay*16),obj_puzz_wall);
    else if a == "2"
      instance_create(165 + (ax*16),160 + (ay*16),obj_puzz_block);
    else if a == "x"
      instance_create(165 + (ax*16),160 + (ay*16),obj_puzz_x);
  }
}

for (a=149; a<=325; a+=16) {
  instance_create(a,144,obj_puzz_wall);
  instance_create(a,320,obj_puzz_wall);
}

for (a=160; a<=304; a+=16) {
  instance_create(149,a,obj_puzz_wall);
  instance_create(325,a,obj_puzz_wall);
}
  Event (0,8): Actions{1}
    Action (603,1): Code[56 lines]
draw_set_alpha(1);
draw_set_color(c3);

if cmode == 0 {
  draw_rectangle(164 + (cx*16),159 + (cy*16),181 + (cx*16),176 + (cy*16),true);
  draw_line(166+(cx*16),157+(cy*16),172+(cx*16),157+(cy*16));
  draw_line(169+(cx*16),178+(cy*16),181+(cx*16),178+(cy*16));
  draw_line(162+(cx*16),158+(cy*16),162+(cx*16),172+(cy*16));
  draw_line(183+(cx*16),163+(cy*16),183+(cx*16),170+(cy*16));
}

draw_set_color(c_black);
draw_rectangle(0,0,630,100,false);
draw_rectangle(0,380,630,480,false);

//Hints
var b;
b = 30;
draw_set_font(fnt_puzzle);
draw_set_halign(fa_center);
draw_set_valign(fa_center);
draw_set_color(c2);
draw_text(475,120+b,"How to Play:");
draw_text(475,160+b,"Action - Select Block");
draw_text(475,180+b,"Directions - Move Block");
draw_text(475,200+b,"Shoot - Reset Puzzle");
draw_text(475,220+b,"Pause - Quit");

draw_set_halign(fa_left);
var ax,ay;
ax = 400;
ay = 250+b;
draw_rectangle(ax+1,ay+1,ax+14,ay+14,false);
draw_line(ax,ay,ax,ay+6);
draw_line(ax+3,ay+15,ax+7,ay+15);
draw_line(ax+15,ay+3,ax+15,ay+15);
draw_text(430,258+b,"Unmovable");

ax = 400;
ay = 275+b;
draw_rectangle(ax+2,ay+2,ax+13,ay+13,false);
draw_rectangle(ax,ay,ax+14,ay+14,true);
draw_text(430,283+b,"Movable");

ax = 400;
ay = 300+b;
draw_line_width(ax+4,ay+3,ax+11,ay+12,3);
draw_line_width(ax+11,ay+3,ax+4,ay+12,3);
draw_text(430,308+b,"Cover These");

draw_set_alpha(alpha);
draw_set_color(c_white);
draw_rectangle(0,0,630,480,false);
draw_set_color(make_color(40,0,40));
draw_set_halign(fa_center);
draw_text(315,240,"You Win!");
