Events{10}
  Event (0,0): Actions{1}
    Action (603,1): Code[19 lines]
sprite = spr_b1_sleep;
image_speed = 4 / 30;
dir = 1;
life = 100;
hit = false;
dy = 0;
alarm[4] = 15;
candraw = false;

a = part_type_create();
part_type_color1(a,c_pink);
part_type_alpha3(a,1,1,0);
part_type_life(a,10,15);
part_type_speed(a,2,3,0,0);
part_type_direction(a,0,359,0,0);
part_type_shape(a,pt_shape_star);
part_type_size(a,8 / 64,20 / 64,0,0);

set_destroyer( a );
  Event (0,2): Actions{1}
    Action (603,1): Code[2 lines]
hit = false;
visible = true;
  Event (1,2): Actions{1}
    Action (603,1): Code[5 lines]
if hit == true
  {
  alarm[1] = 3;
  visible = !visible;
  }
  Event (2,2): Actions{1}
    Action (603,1): Code[8 lines]
if global.difficulty >= 1
  instance_create(x,y,obj_boss1fire);
hspeed = dir * 4;
vspeed = -7;
alarm[3] = 45;
sprite = spr_b1_dive;
gravity = 0.4;
candraw = false;
  Event (3,2): Actions{1}
    Action (603,1): Code[1 lines]
dir = -dir;
  Event (4,2): Actions{1}
    Action (603,1): Code[2 lines]
alarm[4] = 15;
dy = (8-dy);
  Event (0,3): Actions{1}
    Action (603,1): Code[10 lines]
if sprite == spr_b1_sleep
  {
  if (collision_rectangle(315,150,480,315,obj_player,false,false)>0)
    {
    sprite = spr_b1_stand;
    alarm[2] = 40;
    image_speed = 0.8;
    set_music(mus_boss);
    }
  }
  Event (obj_block,4): Actions{1}
    Action (603,1): Code[7 lines]
alarm[3] = 10;
move_contact_solid(270,vspeed);
speed = 0;
sprite = spr_b1_stand;
alarm[2] = 50 + (life / 2) - (10*global.difficulty);
gravity = 0;
candraw = true;
  Event (obj_player,4): Actions{1}
    Action (603,1): Code[29 lines]
if sprite == spr_b1_dead
  exit;

if hit == false
  {
  if sprite == spr_b1_dive or other.y > y or other.vspeed <= 0
    {
    hurt(10);
    }
    else
    {
    candraw = false;
    shake(4);
    sound_play(snd_hitboss);
    part_particles_create(global.p_sys,other.x,other.y,a,6);
    life -= 25;
    hit = true;
    alarm[0] = 50;
    alarm[1] = 3;
    player_bounce();
    if life <= 0
      {
      sound_background_tempo(1);
      instance_change(obj_boss1dead,true);
      }
    if life == 25
      sound_background_tempo(1.3);
    }
  }
  Event (0,8): Actions{1}
    Action (603,1): Code[10 lines]
draw_sprite_ext(sprite,image_index,x,y,dir,1,0,c_white,1);

if candraw && global.difficulty<=1 {
  draw_set_color(c_red);
  draw_set_halign(fa_center);
  draw_set_alpha(1);
  draw_set_font(fnt_small);
  draw_text(x,y-52-dy,"Attack!");
  draw_sprite(spr_button,2,x-15,y-42-dy);
}
