Events{3}
  Event (0,0): Actions{1}
    Action (603,1): Code[17 lines]
vspeed = -5;
hspeed = dir * -3;
gravity = 0.5;
set_music(mus_grotto);

global.boss[1] = true;
with obj_bosswall
  {
  part_particles_create(global.p_sys,x + 7,y + 7,typ,10);
  instance_destroy();
  }
  
var a;
a = instance_create(397,150,obj_smallheart);
a.vspeed = 1;

boss_drop(397,150,1,0.5,10,0,0,0,10,0,0,0);
  Event (0,3): Actions{1}
    Action (603,1): Code[4 lines]
image_angle += 3;

if vspeed > 7
  vspeed = 7;
  Event (0,7): Actions{1}
    Action (203,1): Fields[0]
