Events{3}
  Event (0,0): Actions{1}
    Action (603,1): Code[2 lines]
obj_menu_controls.kp_con = false;
obj_menu_controls.kl_con = true;
  Event (0,1): Actions{1}
    Action (603,1): Code[3 lines]
obj_menu_controls.kp_con = false;
obj_menu_controls.kl_con = true;
instance_create(0,0,obj_multi_menu_fade);
  Event (0,8): Actions{1}
    Action (603,1): Code[32 lines]
var a;

draw_set_color(c_black);
draw_set_alpha(1);
draw_set_halign(fa_center);
draw_set_valign(fa_center);
draw_set_font(fnt_multi_title);
draw_text(315,70,"Help");
draw_set_font(fnt_multi);
draw_set_color(c_white);
draw_set_valign(fa_top);

draw_set_halign(fa_left);
draw_text(120,120,"The Goal:");
draw_set_halign(fa_center);
draw_text_ext_transformed(315,150,"To get 4 bags of cash in your bank.  Both players start with 2 bags and there is one somewhere in the stage.",-1,800,0.5,0.5,0);

draw_set_halign(fa_left);
draw_text(120,205,"The Moves:");
draw_set_halign(fa_center);
draw_text_ext_transformed(315,235,"Press SHOOT to shoot fire, hold DOWN in mid-air to dive-bomb. Hold DOWN on the ground to duck. You can also double-jump by pressing JUMP a second time in mid-air, and stick to the bottoms of blocks by holding JUMP as you touch them.",-1,800,0.5,0.5,0);
  
draw_set_halign(fa_left);
draw_text(120,333,"Stealing:");
draw_set_halign(fa_center);
draw_text_ext_transformed(315,363,"Press SHOOT while standing on a cashbag to pick it up. While carrying you can't use any moves except jumping and running, pressing SHOOT again throws the bag, and if you hold DOWN you'll simply drop it. You can throw it somewhere and come back for it later.",-1,800,0.5,0.5,0);

if mc_p_con()
  {
  instance_destroy();
  instance_activate_object(obj_multi_menu);
  }
