Events{3}
  Event (0,0): Actions{1}
    Action (603,1): Code[6 lines]
menu = 0;
obj_menu_controls.kp_con = false;
obj_menu_controls.kl_con = true;

if !joystick_exists(2)
  obj_multi_con.p2_gp = false;
  Event (0,1): Actions{1}
    Action (603,1): Code[3 lines]
obj_menu_controls.kp_con = false;
obj_menu_controls.kl_con = true;
instance_create(0,0,obj_multi_menu_fade);
  Event (0,8): Actions{1}
    Action (603,1): Code[94 lines]
var a;

if !joystick_exists(2)
  menu = 3;

draw_set_color(c_black);
draw_set_alpha(1);
draw_set_halign(fa_center);
draw_set_valign(fa_center);
draw_set_font(fnt_multi_title);
draw_text(315,70,"P2 Controls");
draw_set_font(fnt_multi);
draw_set_color(c_white);

if obj_multi_con.p2_gp
  a = "Gamepad";
  else
  a = "Keyboard";
if menu == 0
  draw_set_alpha(1);
  else
  draw_set_alpha(0.5);
draw_text(315,220,"Type: " + a);

if obj_multi_con.p2_gp
  {
  if menu == 1
    draw_set_alpha(1);
    else
    draw_set_alpha(0.5);
  draw_text(315,260,"Jump Button: " + string(obj_multi_con.p2_jump));
  if menu == 2
    draw_set_alpha(1);
    else
    draw_set_alpha(0.5);
  draw_text(315,300,"Shoot Button: " + string(obj_multi_con.p2_shoot));
  }
  else
  {
  draw_set_alpha(0.5);
  draw_text_ext(315,310,"Use the W, A, S, and D keys to move and jump, and the left ctrl key to shoot.",-1,400);
  }
  
if menu == 3
  draw_set_alpha(1);
  else
  draw_set_alpha(0.5);
draw_text(315,400,"Done");

if mc_p_down()
  {
  menu += 1;
  if menu == 4
    menu = 0;
  if menu == 1 and !obj_multi_con.p2_gp
    menu = 3;
  }
  
if mc_p_up()
  {
  menu -= 1;
  if menu == -1
    menu = 3;
  if menu == 2 and !obj_multi_con.p2_gp
    menu = 0;
  }
  
if mc_p_con()
  {
  if menu == 0
    obj_multi_con.p2_gp = !obj_multi_con.p2_gp;
  if menu == 3
    {
    instance_destroy();
    instance_activate_object(obj_multi_menu);
    }
  }
  
if menu == 1 and get_gp_button(2) != -1
  {
  a = get_gp_button(2);
  if obj_multi_con.p2_shoot == a
    obj_multi_con.p2_shoot = obj_multi_con.p2_jump;
  obj_multi_con.p2_jump = a;
  }
  
if menu == 2 and get_gp_button(2) != -1
  {
  a = get_gp_button(2);
  if obj_multi_con.p2_jump == a
    obj_multi_con.p2_jump = obj_multi_con.p2_shoot;
  obj_multi_con.p2_shoot = a;
  }
  
