Events{2}
  Event (0,0): Actions{1}
    Action (603,1): Code[4 lines]
image_speed = 0;
image_index = 2;
image_alpha = 0.8;
vspeed = 0.5;
  Event (0,3): Actions{1}
    Action (603,1): Code[7 lines]
image_angle += 2;
image_yscale *= 0.95;

image_alpha -= 0.005;

if image_alpha <= 0
  instance_destroy();
