Events{7}
  Event (0,0): Actions{1}
    Action (603,1): Code[14 lines]
gx = global.stage_x;
gy = global.stage_y;
b_v = background_visible[1];
background_visible[1] = false;
instance_deactivate_all(true);
instance_activate_object(obj_keycon);
particles_pause();

event_perform(ev_draw,0);
screen_redraw();

alarm[0] = 30;

count = 0;
  Event (0,1): Actions{1}
    Action (603,1): Code[1 lines]
background_visible[1] = b_v;
  Event (0,2): Actions{1}
    Action (603,1): Code[1 lines]
alarm[0] = 30;
  Event (0,3): Actions{1}
    Action (603,1): Code[62 lines]
if c_p_right()
{
    event_perform( ev_other, ev_user0 );
}

if c_p_left()
{
    event_perform( ev_other, ev_user1 );
}

if c_right() {
    count = min(15,count+1);
    if (count == 15) {
        count = 10;
        event_perform(ev_other, ev_user0);
    }
} else if c_left() {
    count = max(-15,count-1);
    if (count == -15) {
        count = -10;
        event_perform(ev_other,ev_user1);
    }
} else {
    count = 0;
}

if c_p_back()
{
instance_activate_all();
instance_destroy();
particles_resume();
obj_keycon.kp_action = false;
obj_keycon.kl_action = true;
}

if c_p_confirm()
{
if global.stage_x == gx and global.stage_y == gy
  {
  instance_activate_all();
  instance_destroy();
  particles_resume();
  obj_keycon.kp_action = false;
  obj_keycon.kl_action = true;
  exit;
  }

instance_activate_all();
global.stage_x = gx;
global.stage_y = gy;
obj_player.speed = 0;
setPlayerPosWarp();
instance_destroy();
particles_resume();
particles_clear();
particles_clear_weather();
part_particles_create(global.p_sys,obj_player.x,obj_player.y,obj_controller.typ_teleport,40);
sound_play(snd_teleport);
obj_keycon.kp_action = false;
obj_keycon.kl_action = true;
room = room_lookup("rm_" + string(global.stage_x) + "_" + string(global.stage_y));
}
  Event (10,7): Actions{1}
    Action (603,1): Code[27 lines]
alarm[0] = 30;
gy += 1;
if gy == 26
  {
  gx += 1;
  if gx == 31
    gx = 1;
  gy = 1;
  }
  
if !ds_grid_get(global.map_save,gx,gy)
  {
  do 
    {
    gy += 1;
    if gy == 26
      {
      gx += 1;
      if gx == 31
        gx = 1;
      gy = 1;
      }
      
    }
  until 
    ds_grid_get(global.map_save,gx,gy) 
  } 
  Event (11,7): Actions{1}
    Action (603,1): Code[31 lines]
alarm[0] = 30;
gy -= 1;
if gy == 0
  {
  gx -= 1;
  if gx == 0
    gx = 30;
  gy = 25;
  }
  
if !ds_grid_get(global.map_save,gx,gy)
  {
  do 
    {
    gy -= 1;
    if gy == 0
      {
      gx -= 1;
      if gx == 0
        gx = 30;
      gy = 25;
      }
      
      sx = gx;
      if ((sx >= 24 && gy >= 15) || (gx == 26 && gy == 14))
        sx -= 2;
      
    }
  until
    ds_grid_get(global.map_save,gx,gy)
  }
  Event (0,8): Actions{1}
    Action (603,1): Code[1 lines]
draw_map2(88,31);
