Events{4}
  Event (0,0): Actions{1}
    Action (603,1): Code[4 lines]
image_speed = 4 / 30;
image_alpha = 0;
alarm[0] = 30;
can = false;
  Event (0,2): Actions{1}
    Action (603,1): Code[1 lines]
can = true;
  Event (0,3): Actions{1}
    Action (603,1): Code[2 lines]
if can == true and image_alpha < 1
  image_alpha += 0.05;
  Event (0,8): Actions{1}
    Action (603,1): Code[32 lines]
var sep,a,x1,x2,y1;

draw_set_color(c_white);
draw_set_halign(fa_left);
draw_set_valign(fa_center);
draw_set_font(fnt_title);
draw_set_alpha(image_alpha);

x1 = 395;
x2 = 450;
y1 = 230;
sep = 35;
a = sep;

//draw_text(x1,y1,"Controls:");

draw_set_font(fnt_draw);
draw_sprite_ext(spr_pressright,-1,x1 + 12,y1 + sep,1,1,0,c_white,image_alpha);
draw_sprite_ext(spr_pressright,-1,x1 - 12,y1 - 1 + sep,1,1,180,c_white,image_alpha);
draw_text(x2,y1 + sep,"Move");

sep += a;
draw_sprite_ext(spr_pressright,-1,x1,y1 + sep,1,1,90,c_white,image_alpha);
draw_text(x2,y1 + sep,"Jump");

sep += a;
draw_sprite_ext(spr_pressspace,-1,x1,y1 + sep,1,1,0,c_white,image_alpha);
draw_text(x2,y1 + sep,"Pause");

sep += a;
draw_sprite_ext(spr_pressx,-1,x1,y1 + sep,1,1,0,c_white,image_alpha);
draw_text(x2,y1 + sep,"Action");
