Events{7}
  Event (0,0): Actions{1}
    Action (603,1): Code[23 lines]
image_blend = c_gold;
img_angle = 0;

typ = part_type_create();
part_type_color1(typ,c_gold);
part_type_alpha3(typ,1,1,0);
part_type_life(typ,10,12);
part_type_speed(typ,0.5,2,0,0);
part_type_direction(typ,0,359,0,0);
part_type_shape(typ,pt_shape_square);
part_type_size(typ,2 / 64,4 / 64,0,0);

typ2 = part_type_create();
part_type_sprite(typ2,spr_crystal,false,false,false);
part_type_color1(typ2,c_gold);
part_type_orientation(typ2,0,359,5,4,false);
part_type_life(typ2,10,20);
part_type_speed(typ2,5,7,-0.05,0);
part_type_direction(typ2,90,90,0,0);
part_type_death(typ2,8,typ);

dest = set_destroyer( typ );
dest2 = set_destroyer( typ2 );
  Event (0,3): Actions{1}
    Action (603,1): Code[24 lines]
img_angle -= speed * 4;

if global.ability[20]
  {
  var a;
  a = distance_to_object(obj_player);
  if a <= 120
    {
    move_towards_point(obj_player.x,obj_player.y,(1 - (a / 120)) * 4);
    exit;
    }
  }
  
if vspeed > 5
  vspeed = 5;
  
if place_free(x,y + 1) and !place_meeting(x,y + 1,obj_upblock)
  gravity = 0.5;
  else
  {
  gravity = 0;
  vspeed = 0;
  hspeed = 0;
  }
  Event (obj_block,4): Actions{1}
    Action (603,1): Code[5 lines]
move_contact_solid(direction,speed);
speed = 0;

if !place_free(x,y + 1)
  gravity = 0;
  Event (obj_player,4): Actions{2}
    Action (203,1): Fields[0]
    Action (603,1): Code[8 lines]
global.crystal += 100;
global.drawcrystal = global.crystal;
show_money();
sound_play(snd_crystal);
part_particles_create(global.p_sys,x,y,typ2,1);

dest.alarm[0] = 35;
dest2.alarm[0] = 35;
  Event (obj_upblock,4): Actions{1}
    Action (603,1): Code[5 lines]
y = other.y - 6;
speed = 0;

if !place_free(x,y + 1) or place_meeting(x,y + 1,obj_upblock)
  gravity = 0;
  Event (0,7): Actions{1}
    Action (203,1): Fields[0]
  Event (0,8): Actions{1}
    Action (603,1): Code[1 lines]
draw_sprite_ext(sprite_index,0,x,y,1,1,img_angle,image_blend,1);
