Events{3}
  Event (0,0): Actions{1}
    Action (603,1): Code[5 lines]
image_alpha = 0.6;
vspeed = -4;
alarm[0] = 180;
gravity = 0.2;
gravity_direction = 180;
  Event (0,2): Actions{1}
    Action (603,1): Code[2 lines]
instance_destroy();
instance_create(obj_multi_con.p2startx,obj_multi_con.p2starty,obj_multi_player2);
  Event (0,3): Actions{1}
    Action (603,1): Code[4 lines]
if hspeed  <= -2
    gravity_direction = 0;
  if hspeed >= 2
    gravity_direction = 180
