Events{22}
  Event (0,0): Actions{1}
    Action (603,1): Code[36 lines]
//Normal Stuff
candj = true;
flash = false;
canshoot = true;
canair = true;
life = 100;
wlife = 100;
dazed = false;
carry = false;
slow = false;
hj = false;
invin = false;
obj_multi_con.p1startx = x;
obj_multi_con.p1starty = y;

typ = part_type_create();
part_type_color1(typ,c_red);
part_type_alpha3(typ,1,1,0);
part_type_life(typ,30,50);
part_type_speed(typ,2,3,0,0);
part_type_direction(typ,0,359,0,0);
part_type_shape(typ,pt_shape_star);
part_type_size(typ,8 / 64,20 / 64,0,0);

part_particles_create(global.p_sys,x,y,typ,22);

//Stats
jump_height = 8;
djump_height = 5;
cancrawl = false;

//Sprite stuff
sprite = spr_3player1;
img_angle = 0;
img_xscale = 1;
img_yscale = 1;
  Event (0,2): Actions{1}
    Action (603,1): Code[3 lines]
flash = false;
visible = true;
dazed = false;
  Event (1,2): Actions{1}
    Action (603,1): Code[5 lines]
if flash == true
  {
  alarm[1] = 3;
  visible = !visible;
  }
  Event (2,2): Actions{1}
    Action (603,1): Code[1 lines]
canshoot = true;
  Event (3,2): Actions{1}
    Action (603,1): Code[9 lines]
if place_meeting(x,y,obj_water)
  {
  part_particles_create(global.p_sys_d,x - 5 + random(10),y - 5 + random(10),obj_multi_con.typ4,3);
  if wlife > 0
    wlife -= 1;
    else
    m1hurt(10);
  }
canair = true;
  Event (4,2): Actions{1}
    Action (603,1): Code[1 lines]
slow = false;
  Event (5,2): Actions{1}
    Action (603,1): Code[1 lines]
hj = false;
  Event (6,2): Actions{1}
    Action (603,1): Code[1 lines]
invin = false;
  Event (0,3): Actions{2}
    Action (601,1): Fields[6]
      m1player_step_event
      0
      0
      0
      0
      0
    Action (601,1): Fields[6]
      m1player_set_sprite
      0
      0
      0
      0
      0
  Event (obj_block,4): Actions{1}
    Action (601,1): Fields[6]
      collision
      0
      0
      0
      0
      0
  Event (obj_spikeball1,4): Actions{1}
    Action (603,1): Code[3 lines]
if room == rm_multi11
  m1hurt(100);
else m1hurt(25);
  Event (obj_crackedblock,4): Actions{1}
    Action (603,1): Code[8 lines]
if vspeed < 7 or !place_meeting(x,y + vspeed,other)
  collision();
  else
  {
  with other
    instance_destroy();
  sound_play(snd_break);
  }
  Event (obj_upblock,4): Actions{1}
    Action (603,1): Code[6 lines]
if vspeed > 0 and other.y > yprevious
  {
  move_outside_all(90,vspeed);
  move_contact_all(270,vspeed);
  vspeed = 0;
  }
  Event (obj_enemy4,4): Actions{1}
    Action (601,1): Fields[6]
      collision
      0
      0
      0
      0
      0
  Event (obj_multi_player2,4): Actions{1}
    Action (603,1): Code[14 lines]
if y < other.y and vspeed >= 7 and !other.invin
and !other.flash
  {
  sound_play(snd_hitboss);
  m2hurt(40);
  with other
    {
    dazed = true;
    if place_free(x,y + 1)
      vspeed = 7;
    }
  vspeed = -jump_height - hj;
  candj = true;
  }
  Event (obj_multi_enemy3,4): Actions{1}
    Action (603,1): Code[10 lines]
if y < other.y + 10 and vspeed >= 7
  {
  with other
    instance_destroy();
  sound_play(snd_break);
  vspeed = -jump_height - hj;
  candj = true;
  }
  else
  m1hurt(20);
  Event (obj_multi_enemy6,4): Actions{1}
    Action (603,1): Code[12 lines]
if y <= other.y and vspeed > 0
  {
  sound_play(snd_hit);
  with other
    instance_destroy();
  vspeed = -jump_height - hj;
  candj = true;
  }
  else
  {
  m1hurt(15);
  }
  Event (obj_multi_enemy12,4): Actions{1}
    Action (603,1): Code[5 lines]
with other
  {
  if !place_meeting(x,y,obj_block)
    m1hurt(40);
  }
  Event (obj_multi_enemy8,4): Actions{1}
    Action (603,1): Code[10 lines]
if y >= other.y - 5 and sign(x - other.x) == sign(other.hspeed)
  {
  if place_free(x + 4 * sign(other.hspeed),y)
    hspeed = sign(other.hspeed);
    else
    other.hspeed = -other.hspeed;
  m1hurt(50);
  }
  else
  collision();
  Event (0,7): Actions{1}
    Action (603,1): Code[1 lines]
m1die();
  Event (1,7): Actions{1}
    Action (603,1): Code[17 lines]
if x > 625
  {
  x = 625;
  hspeed = 0;
  }
  
if x < 5
  {
  x = 5;
  hspeed = 0;
  }
  
if y < 5
  {
  y = 5;
  vspeed = 0;
  }
  Event (0,8): Actions{1}
    Action (603,1): Code[3 lines]
draw_sprite_ext(sprite,image_index,x,y,img_xscale,img_yscale,img_angle,c_white,image_alpha);


