Events{2}
  Event (0,0): Actions{1}
    Action (603,1): Code[4 lines]
vspeed = -4;
hspeed = -4;
friction = 0.4;
alarm[0] = 40;
  Event (0,2): Actions{1}
    Action (603,1): Code[2 lines]
instance_destroy();
part_particles_create(global.p_sys,x,y,obj_multi_con.typ3,22);
