Events{8}
  Event (0,0): Actions{1}
    Action (603,1): Code[5 lines]
image_speed = 0;
hspeed = 2;

if place_free(x,y + 4)
  sprite_index = spr_enemy20b;
  Event (0,3): Actions{1}
    Action (603,1): Code[34 lines]
var a,b;

if instance_number(obj_multi_player1)
  a = obj_multi_player1.y > y + 5 && obj_multi_player1.y < y + 27;
else a = false;

if instance_number(obj_multi_player2)
  b = obj_multi_player2.y > y + 5 && obj_multi_player2.y < y + 27;
else b = false;

if a {
  if (image_xscale == 1 && obj_multi_player1.x > x)
  || (image_xscale == -1 && obj_multi_player1.x < x) {
    hspeed = sign(hspeed) * 5;
    image_index = 1;
  }
  else {
    hspeed = sign(hspeed) * 2;
    image_index = 0;
  }
} else if b {
  if (image_xscale == 1 && obj_multi_player2.x > x)
  || (image_xscale == -1 && obj_multi_player2.x < x) {
    hspeed = sign(hspeed) * 5;
    image_index = 1;
  }
  else {
    hspeed = sign(hspeed) * 2;
    image_index = 0;
  }
} else {
  hspeed = sign(hspeed) * 2;
  image_index = 0;
}
  Event (obj_block,4): Actions{1}
    Action (603,1): Code[2 lines]
hspeed *= -1;
image_xscale = sign(hspeed);
  Event (obj_enturn,4): Actions{1}
    Action (603,1): Code[2 lines]
hspeed *= -1;
image_xscale = sign(hspeed);
  Event (obj_multi_player1,4): Actions{1}
    Action (603,1): Code[1 lines]
m1hurt(50);
  Event (obj_multi_player2,4): Actions{1}
    Action (603,1): Code[1 lines]
m2hurt(50);
  Event (obj_multi_player1shot,4): Actions{1}
    Action (603,1): Code[6 lines]
if sign(other.hspeed) == sign(hspeed) {
  hspeed *= -1;
  image_xscale *= -1;
}
  
with other instance_destroy();
  Event (obj_multi_player2shot,4): Actions{1}
    Action (603,1): Code[6 lines]
if sign(other.hspeed) == sign(hspeed) {
  hspeed *= -1;
  image_xscale *= -1;
}
  
with other instance_destroy();
