Events{4}
  Event (0,0): Actions{1}
    Action (603,1): Code[46 lines]
image_speed = 0;
image_index = 1;
vspeed = -1;
image_blend = merge_color(c_ghost,c_white,0.6);
alarm[0] = 150;
obj_lightning.alarm[0] = 150;

//Glow
typ = part_type_create();
part_type_color1(typ,c_ghost);
part_type_alpha3(typ,1,1,0);
part_type_life(typ,7,10);
part_type_speed(typ,1,3,0,0);
part_type_direction(typ,70,110,0,20);
part_type_sprite(typ,spr_firepart,false,false,false);
part_type_size(typ,0.8,1.6,0,0);
part_type_orientation(typ,0,359,0,5,false);

//Charging
typ2 = part_type_create();
part_type_color1(typ2,c_ghost);
part_type_alpha3(typ2,1,1,0);
part_type_life(typ2,12,18);
part_type_sprite(typ2,spr_firepart,false,false,false);
part_type_size(typ2,0.8,1.6,0,0);
part_type_orientation(typ2,0,359,0,5,false);

//Hit Stars
typ3 = part_type_create();
part_type_color1(typ3,c_ghost);
part_type_alpha3(typ3,1,1,0);
part_type_life(typ3,10,15);
part_type_speed(typ3,2,3,0,0);
part_type_direction(typ3,0,359,0,0);
part_type_shape(typ3,pt_shape_star);
part_type_size(typ3,8 / 64,20 / 64,0,0);

set_destroyer( typ );
set_destroyer( typ2 );
set_destroyer( typ3 );

attr = part_attractor_create(global.p_sys_c);
part_attractor_force(global.p_sys_c,attr,8,110,ps_force_quadratic,true);
part_attractor_position(global.p_sys_c,attr,x,y);
dest = part_destroyer_create(global.p_sys_c);
part_destroyer_region(global.p_sys_c,dest,x-5,x+5,y-5,y+5,ps_shape_rectangle);
  Event (0,1): Actions{1}
    Action (603,1): Code[2 lines]
part_attractor_destroy(global.p_sys_c,attr);
part_destroyer_destroy(global.p_sys_c,dest);
  Event (0,2): Actions{1}
    Action (603,1): Code[15 lines]
instance_destroy();

var a;
a = instance_create(x,y,obj_fb3leg);
a.image_index = 2;
a.spin = random(2);
a.direction = 225;
a = instance_create(x,y,obj_fb3leg);
a.image_index = 3;
a.spin = -random(2);
a.direction = 315;

instance_create(x,y,obj_fb4);

repeat(20) part_particles_create(global.p_sys,x-20+random(40),y-15+random(50),typ3,1);
  Event (0,3): Actions{1}
    Action (603,1): Code[9 lines]
part_particles_create(global.p_sys_b,x-10+random(20),y-5,typ,1);

if image_blend != c_ghost {
  image_blend = merge_color(image_blend,c_ghost,0.2);
}

part_attractor_position(global.p_sys_c,attr,x,y);
part_particles_create(global.p_sys_c,x+((30+random(60))*choose(1,-1)),y+((30+random(60))*choose(1,-1)),typ2,1);
part_destroyer_region(global.p_sys_c,dest,x-5,x+5,y-5,y+5,ps_shape_rectangle);
