Events{6}
  Event (0,0): Actions{1}
    Action (603,1): Code[22 lines]
obj_finalclimb.hspd = 2;

image_speed = 0;
alpha = 0.8;
dy = y;
da = 0;

typ = part_type_create();
part_type_color1(typ,c_ghost);
part_type_alpha3(typ,1,1,0);
part_type_life(typ,7,10);
part_type_speed(typ,1,3,0,0);
part_type_direction(typ,0,359,0,20);
part_type_sprite(typ,spr_firepart,false,false,false);
part_type_size(typ,0.8,1.6,0,0);
part_type_orientation(typ,0,359,0,5,false);

set_destroyer( typ );

alarm[0] = 120;
can = false;
can2 = true;
  Event (0,2): Actions{1}
    Action (603,1): Code[1 lines]
can = true;
  Event (1,2): Actions{1}
    Action (603,1): Code[10 lines]
instance_destroy();
var a;
a = instance_create(-20,20,obj_fb2);
a.num = 0;
a = instance_create(650,20,obj_fb2);
a.num = 1;

obj_lightning.alarm[0] = 1;

set_music(mus_finale);
  Event (0,3): Actions{1}
    Action (603,1): Code[8 lines]
da += 1;
dy += 0.5;
alpha = approach(alpha,0,0.01);

part_particles_create(global.p_sys_b,x-5+random(10),y-5+random(10),typ,1);

if can
  hspeed = approach(hspeed,10,1);
  Event (0,7): Actions{1}
    Action (603,1): Code[4 lines]
if can2 {
  can2 = false;
  alarm[1] = 60;
}
  Event (0,8): Actions{1}
    Action (603,1): Code[1 lines]
draw_sprite_ext(sprite_index,0,315,dy,1,1,da,c_white,alpha);
