Events{2}
  Event (0,0): Actions{1}
    Action (603,1): Code[1 lines]
image_speed = 4 / 30;
  Event (0,8): Actions{1}
    Action (603,1): Code[3 lines]
draw_sprite(sprite_index,image_index,x,y);

furniture(13,"Work of Art",118);
