Events{2}
  Event (0,0): Actions{1}
    Action (603,1): Code[1 lines]
image_speed = 4 / 30;
  Event (0,8): Actions{1}
    Action (603,1): Code[11 lines]
draw_sprite(sprite_index,image_index,x,y);

furniture(14,"JumpBox Arcade Game",112);

if global.buy[14]
  {
  if draw_signal(x + 15,y - 15) and c_p_action()
    {
    instance_create(0,0,obj_mini5);
    }
  }
