Events{5}
  Event (0,0): Actions{1}
    Action (603,1): Code[7 lines]
surface = surface_create(630,480);
angle = 0;

mplay = (room == rm_multi10);

if mplay
  depth = -100000;
  Event (0,1): Actions{1}
    Action (603,1): Code[1 lines]
surface_free(surface);
  Event (1,3): Actions{1}
    Action (603,1): Code[54 lines]
angle = (angle+359) mod 360;

if !surface_exists(surface)
  surface = surface_create(630,480);
  
surface_set_target(surface);

draw_set_color(c_black);
draw_set_alpha(1);
draw_rectangle(0,0,630,480,false);

draw_set_blend_mode(bm_add);

if !mplay {

with obj_player draw_sprite_ext(spr_darklight,0,x,y,1.1,1.1,obj_darkness.angle,c_white,0.8);
with obj_playershot draw_sprite_ext(spr_darklight,0,x,y,0.6,0.6,obj_darkness.angle,c_white,0.8);
with obj_playershot2 draw_sprite_ext(spr_darklight,0,x,y,0.7,0.7,obj_darkness.angle,c_white,0.8);
if room == rm_18_12 {
  with obj_smallheart draw_sprite_ext(spr_darklight,0,x,y,0.5,0.5,obj_darkness.angle,c_white,0.8);
  with obj_energyball draw_sprite_ext(spr_darklight,0,x,y,1,1,obj_darkness.angle,c_white,0.8);
  with obj_heart draw_sprite_ext(spr_darklight,0,x,y,1,1,obj_darkness.angle,c_white,0.8);
  with obj_darklantern if lit draw_sprite_ext(spr_darklight,0,x,y,1.1,1.1,obj_darkness.angle,c_white,0.8);
  with obj_gold draw_sprite_ext(spr_darklight,0,x,y,1.1,1.1,obj_darkness.angle,c_white,0.8);
  with obj_b13intro if glow draw_sprite_ext(spr_darklight,0,x,y,1,1,obj_darkness.angle,c_white,0.8);
  with obj_b13 draw_sprite_ext(spr_darklight,0,x,y,1,1,obj_darkness.angle,c_white,0.8);
  with obj_b13lantern draw_sprite_ext(spr_darklight,0,x,y,1.1,1.1,obj_darkness.angle,c_white,0.8);
  with obj_b13shot draw_sprite_ext(spr_darklight,0,x,y,0.6,0.6,obj_darkness.angle,c_white,0.8);
  with obj_b13bigshot draw_sprite_ext(spr_darklight,0,x,y,1,1,obj_darkness.angle,c_white,0.8);
  with obj_b13dead draw_sprite_ext(spr_darklight,0,x,y,1,1,obj_darkness.angle,c_white,0.8);
} else {
  with obj_darklantern if lit {
    if visible draw_sprite_ext(spr_darklight,0,x,y,0.9,0.9,obj_darkness.angle,c_white,0.8);
    else draw_sprite_ext(spr_darklight,0,x,y,2,2,obj_darkness.angle,c_white,0.8);
  }
}

} else {

with obj_multi_player1 if mask_index != spr_playerduck && mask_index != spr_playerroof draw_sprite_ext(spr_darklight,0,x,y,1.1,1.1,obj_darkness.angle,c_white,0.8);
with obj_multi_player2 if mask_index != spr_playerduck && mask_index != spr_playerroof draw_sprite_ext(spr_darklight,0,x,y,1.1,1.1,obj_darkness.angle,c_white,0.8);
with obj_multi_player1shot draw_sprite_ext(spr_darklight,0,x,y,0.6,0.6,obj_darkness.angle,c_white,0.8);
with obj_multi_player2shot draw_sprite_ext(spr_darklight,0,x,y,0.6,0.6,obj_darkness.angle,c_white,0.8);
with obj_multi_bankpad1 draw_sprite_ext(spr_darklight,0,x+22,y-15,1.1,1.1,obj_darkness.angle,c_white,0.8);
with obj_multi_bankpad2 draw_sprite_ext(spr_darklight,0,x+22,y-15,1.1,1.1,obj_darkness.angle,c_white,0.8);
with obj_multi_powerup draw_sprite_ext(spr_darklight,0,x,y,0.6,0.6,obj_darkness.angle,c_white,0.8);
with obj_multi_cashbag draw_sprite_ext(spr_darklight,0,x,y,0.6,0.6,obj_darkness.angle,c_white,0.8);

}


draw_set_blend_mode(bm_normal);

surface_reset_target();
  Event (5,7): Actions{1}
    Action (603,1): Code[1 lines]
surface_free(surface);
  Event (0,8): Actions{1}
    Action (603,1): Code[83 lines]
if surface_exists(surface) {
  draw_set_blend_mode_ext(bm_dest_color,bm_zero);
  draw_surface(surface,0,0);
  draw_set_blend_mode_ext(bm_src_alpha,bm_inv_src_alpha);
} else {
  draw_set_alpha(1);
  draw_set_color(c_black);
  draw_rectangle(0,0,630,480,false);
}

if mplay {

var a;

//P1 Life
if instance_number(obj_multi_player1) == 1
  a = obj_multi_player1.life;
else
  a = 0;
draw_sprite_ext(spr_wbox68,0,5,5,1,1,0,c_white,1);
draw_set_color(c_black);
draw_set_alpha(1);
draw_set_halign(fa_left);
draw_set_valign(fa_center);
draw_set_font(fnt_draw);
draw_sprite(spr_heart,0,17,14);
draw_text(33,14,string(a));

//P2 Life
if instance_number(obj_multi_player2) == 1
  a = obj_multi_player2.life;
else
  a = 0;
draw_set_halign(fa_right);
draw_sprite_ext(spr_wbox68,0,557,5,1,1,0,c_white,1);
draw_sprite(spr_wheart,0,610,14);
draw_text(594,14,string(a));

//Draw P1 Cash
if obj_multi_con.p1cash >= 1
  a = c_white;
else
  a = c_black;
draw_sprite_ext(spr_mplay_cashbag,0,12,45,1,1,0,a,1);
if obj_multi_con.p1cash >= 2
  a = c_white;
else
  a = c_black;
draw_sprite_ext(spr_mplay_cashbag,0,32,45,1,1,0,a,1);
if obj_multi_con.p1cash >= 3
  a = c_white;
else
  a = c_black;
draw_sprite_ext(spr_mplay_cashbag,0,52,45,1,1,0,a,1);
if obj_multi_con.p1cash == 4
  a = c_white;
else
  a = c_black;
draw_sprite_ext(spr_mplay_cashbag,0,72,45,1,1,0,a,1);
//Draw P2 Cash
if obj_multi_con.p2cash >= 1
  a = c_white;
else
  a = c_black;
draw_sprite_ext(spr_mplay_cashbag,0,618,45,1,1,0,a,1);
if obj_multi_con.p2cash >= 2
  a = c_white;
else
  a = c_black;
draw_sprite_ext(spr_mplay_cashbag,0,598,45,1,1,0,a,1);
if obj_multi_con.p2cash >= 3
  a = c_white;
else
  a = c_black;
draw_sprite_ext(spr_mplay_cashbag,0,578,45,1,1,0,a,1);
if obj_multi_con.p2cash == 4
  a = c_white;
else
  a = c_black;
draw_sprite_ext(spr_mplay_cashbag,0,558,45,1,1,0,a,1);


}
