Events{9}
  Event (0,0): Actions{1}
    Action (603,1): Code[28 lines]
image_speed = 0;
image_xscale = 0;
img_x = 0;
alarm[3] = 60;
can = true;
cans = true;
text = "";
count = 0;
alpha = 0;
can2 = false;
canskip = false;

bg = background_add(directory + "\misc8.PNG",true,false,false);

if global.boss[14] || obj_player.y > 300
  instance_destroy();
  
typ = part_type_create();
part_type_color1(typ,c_aqua);
part_type_alpha3(typ,1,1,0);
part_type_life(typ,12,15);
part_type_speed(typ,1,3,0,0);
part_type_direction(typ,0,359,0,10);
part_type_sprite(typ,spr_firepart,false,false,false);
part_type_size(typ,0.6,1.2,0,0);
part_type_orientation(typ,0,359,0,5,false);

set_destroyer( typ );
  Event (0,1): Actions{1}
    Action (603,1): Code[1 lines]
background_delete(bg);
  Event (0,2): Actions{1}
    Action (603,1): Code[5 lines]
sound_play(snd_b14appear);
img_x = -1;
alarm[1] = 30;
canskip = true;
instance_create(315,20,obj_skip);
  Event (1,2): Actions{1}
    Action (603,1): Code[45 lines]
if count == 0 {
  text = "Hello there, traveler.";
  alarm[1] = 110;
} else if count == 1 {
  text = "";
  alarm[1] = 30;
} else if count == 2 {
  text = "You have gone substantially further than anyone before you.";
  alarm[1] = 130;
} else if count == 3 {
  text = "";
  alarm[1] = 30;
} else if count == 4 {
  text = "So I've taken it upon myself to put an end to your cute little adventure.";
  alarm[1] = 140;
} else if count == 5 {
  text = "";
  alarm[1] = 30;
} else if count == 6 {
  text = "Y'know... earn a few brownie points with the boss.";
  alarm[1] = 120;
} else if count == 7 {
  text = "";
  alarm[1] = 30;
} else if count == 8 {
  text = "Like I said, it was cute.  You had a good run, and you even got me to take care of you personally...";
  alarm[1] = 150;
} else if count == 9 {
  text = "";
  alarm[1] = 30;
} else if count == 10 {
  text = "...that's an honor compared to being carried off by the ghosts like everyone else.";
  alarm[1] = 150;
} else if count == 11 {
  text = "";
  alarm[1] = 30;
} else if count == 12 {
  text = "Okay, lets get this over with.  Try not to squirm.";
  alarm[1] = 110;
} else if count == 13 {
  text = "";
  can2 = true;
}

count += 1;
  Event (3,2): Actions{1}
    Action (603,1): Code[1 lines]
alarm[3] = 60;
  Event (0,3): Actions{1}
    Action (603,1): Code[57 lines]
if image_xscale != img_x {
  if image_xscale < img_x
    image_xscale = min(image_xscale+0.2,img_x);
  else image_xscale = max(image_xscale-0.2,img_x);
}

if can && obj_player.x > 100 {
  can = false;
  var a;
  for (a=45; a<=285; a+=15) {
    instance_create(45,a,obj_bosswall);
    instance_create(570,a,obj_bosswall);
  }
  obj_bosswall.image_alpha = 0;
  alarm[0] = 60;
}

var a,b,c;
if instance_number(obj_player) > 0
  a = distance_to_object(obj_player) < 15;
else a = false;

if instance_number(obj_playershot) > 0
  b = distance_to_object(obj_playershot) < 15;
else b = false;

if instance_number(obj_playershot2) > 0
  c = distance_to_object(obj_playershot2) < 15;
else c = false;

if (a || b || c || can2) && cans && image_xscale != 0 {
  cans = false;
  img_x = 0;
  sound_play(snd_b14appear);
}

if !cans && image_xscale == 0 {
  if x == 480 {
    x = 155;
    img_x = 1;
  } else {
    x = 480;
    img_x = -1;
  }
  if can2 {
    x = 480;
    y = 120;
    set_music(mus_shakespeare);
    instance_create(x,y,obj_b14);
    instance_destroy(); 
  }
  cans = true;
  sound_play(snd_b14appear);
}

if abs(image_xscale) == 1
  part_particles_create(global.p_sys_b,x-5+random(10),y-5+random(10),typ,1);
  Event (5,7): Actions{1}
    Action (603,1): Code[1 lines]
background_delete(bg);
  Event (0,8): Actions{1}
    Action (603,1): Code[21 lines]
var c;
c = abs((alarm[3]/30)-1)*5;

draw_sprite_ext(sprite_index,image_index,x,y+c,image_xscale,image_yscale,image_angle,c_white,1);

if text != "" {
  if alpha < 1
    alpha += 0.2;
} else {
  if alpha > 0
    alpha -= 0.2;
}

draw_background_ext(bg,75,320,1,1,0,c_gray,alpha);
draw_set_font(fnt_shakespeare);
draw_set_color(c_black);
draw_set_alpha(alpha);
draw_set_valign(fa_center);
draw_set_halign(fa_center);
draw_text_ext(315,395,text,-1,440);
draw_set_alpha(1);
  Event (83,9): Actions{1}
    Action (603,1): Code[5 lines]
if count != 13 && canskip {
  count = 13;
  alarm[1] = 1;
  obj_skip.alarm[0] = 1;
}
