Events{10}
  Event (0,0): Actions{1}
    Action (603,1): Code[35 lines]
if room == rm_27_22 || room == rm_30_22 {
  image_blend = c_dkgray;
  dmg = 100;
} else {
  image_blend = c_white;
  dmg = 70;
}

angle = 0;
can = true;
slow = false;
stun = false;
wait = true;
alarm[2] = 30;

typ = part_type_create();
part_type_color1(typ,c_gray);
part_type_alpha3(typ,1,1,0);
part_type_life(typ,10,15);
part_type_speed(typ,2,3,0,0);
part_type_direction(typ,0,359,0,0);
part_type_shape(typ,pt_shape_star);
part_type_size(typ,8 / 64,20 / 64,0,0);

typ2 = part_type_create();
part_type_color1(typ2,c_red);
part_type_alpha3(typ2,1,1,0);
part_type_life(typ2,10,15);
part_type_speed(typ2,2,3,0,0);
part_type_direction(typ2,0,359,0,0);
part_type_shape(typ2,pt_shape_star);
part_type_size(typ2,8 / 64,20 / 64,0,0);

set_destroyer( typ );
set_destroyer( typ2 );
  Event (0,1): Actions{1}
    Action (603,1): Code[7 lines]
if room == rm_5_16 && !global.heart[86] && instance_number(obj_enemy29) == 1 {
  var a;
  a = instance_create(315,285,obj_heart);
  a.num = 86;
  sound_play(mus_secret);
  part_particles_create(global.p_sys,315,285,typ2,12);
}
  Event (0,2): Actions{1}
    Action (603,1): Code[1 lines]
slow = true;
  Event (1,2): Actions{1}
    Action (603,1): Code[2 lines]
speed = 0;
stun = false;
  Event (2,2): Actions{1}
    Action (603,1): Code[1 lines]
wait = false;
  Event (obj_block,4): Actions{1}
    Action (603,1): Code[4 lines]
stun = true;
speed = 1;
direction += 180;
alarm[1] = 20;
  Event (obj_player,4): Actions{1}
    Action (603,1): Code[1 lines]
hurt(dmg);
  Event (obj_playershot,4): Actions{1}
    Action (603,1): Code[11 lines]
var a;
a = instance_create(x,y,obj_enemy29dead);
a.image_angle = angle;
a.image_blend = image_blend;
a.hspeed = other.hspeed;

sound_play(snd_hit);
part_particles_create(global.p_sys,x,y,typ,4);
instance_destroy();
with other instance_destroy();
drop(x,y,30,5);
  Event (0,7): Actions{1}
    Action (603,1): Code[2 lines]
if !slow && !can
  alarm[0] = 1;
  Event (0,8): Actions{1}
    Action (603,1): Code[22 lines]
if can && !stun {
  var a;
  a = point_direction(x,y,obj_player.x,obj_player.y);
  angle += angle_rotate(angle,a,6);
  angle = (angle+360) mod 360;
  if distance_to_object(obj_player) < 240 && abs(angle-a) < 6 && !wait {
    can = false;
    speed = 8;
    direction = angle;
    alarm[0] = 30;
  }
}

if slow && !stun {
  speed = reduce(speed,0.5);
  if speed <= 0 {
    slow = false;
    can = true;
  }
}

draw_sprite_ext(sprite_index,0,x,y,1,1,angle,image_blend,1);
