Events{7}
  Event (0,0): Actions{1}
    Action (603,1): Code[21 lines]
image_speed = 0;
image_blend = c_cave;
start = y;
can = true;

if obj_controller.name == "NightWalk"
  image_blend = c_white;
  
f = image_blend;

typ = part_type_create();
part_type_color1(typ,image_blend);
part_type_alpha3(typ,1,1,0);
part_type_life(typ,10,15);
part_type_speed(typ,3,5,0,0);
part_type_gravity(typ,0.5,270);
part_type_direction(typ,40,140,0,0);
part_type_sprite(typ,spr_b5_shot,false,false,false);
part_type_size(typ,14 / 64,22 / 64,0,0);

set_destroyer( typ );
  Event (0,1): Actions{1}
    Action (603,1): Code[2 lines]
drop(x + 22,y + 15,45,6);
part_particles_create(global.p_sys,x + 22,y + 15,typ,8);
  Event (0,2): Actions{1}
    Action (603,1): Code[2 lines]
image_index = 0;
image_blend = f;
  Event (0,3): Actions{1}
    Action (603,1): Code[19 lines]
if image_index == 0
  {
  if y > start
    {
    repeat(2)
      {
      if y > start
        y -= 1;
      }
    }
    else
    {
    if obj_player.y > y and obj_player.x >= x - 6 and obj_player.x <= x + 51
      {
      image_index = 1;
      vspeed = 8;
      }
    }
  }
  Event (obj_block,4): Actions{1}
    Action (603,1): Code[5 lines]
move_contact_solid(270,8);
vspeed = 0;
alarm[0] = 30;
sound_play(snd_land);
shake(3);
  Event (obj_playershot,4): Actions{2}
    Action (603,1): Code[7 lines]
image_index = 1;
image_blend = c_red;

if place_free(x,y + 1)
  vspeed = 8;
  else
  alarm[0] = 30;
    Action (203,1): Applies(other) Fields[0]
  Event (0,8): Actions{1}
    Action (603,1): Code[8 lines]
if image_index == 1 and vspeed > 0
  {
  draw_sprite_ext(sprite_index,image_index,x,y - 8,1,1,0,image_blend,0.2);
  draw_sprite_ext(sprite_index,image_index,x,y - 4,1,1,0,image_blend,0.2);
  }


draw_sprite_ext(sprite_index,image_index,x,y,1,1,0,image_blend,image_alpha);
