Events{7}
  Event (0,0): Actions{1}
    Action (603,1): Code[14 lines]
hspeed = 2;
image_speed = 0.3;
hold = 0;

typ = part_type_create();
part_type_color1(typ,c_ability);
part_type_alpha3(typ,1,1,0);
part_type_life(typ,10,15);
part_type_speed(typ,2,3,0,0);
part_type_direction(typ,0,359,0,0);
part_type_shape(typ,pt_shape_star);
part_type_size(typ,8 / 64,20 / 64,0,0);

set_destroyer( typ );
  Event (0,1): Actions{1}
    Action (603,1): Code[1 lines]
drop(x,y,42,4);
  Event (obj_block,4): Actions{1}
    Action (603,1): Code[2 lines]
hspeed = -hspeed;
image_xscale = -image_xscale;
  Event (obj_player,4): Actions{1}
    Action (603,1): Code[1 lines]
hurt(35);
  Event (obj_playershot,4): Actions{1}
    Action (603,1): Code[8 lines]
var a;
instance_destroy();
sound_play(snd_hit);
part_particles_create(global.p_sys,other.x,other.y,typ,12);
a = instance_create(x,y,obj_enemy1shell);
a.sprite_index = spr_enemy10shell;
with other
  instance_destroy();
  Event (obj_enturn,4): Actions{1}
    Action (603,1): Code[2 lines]
hspeed = -hspeed;
image_xscale = -image_xscale;
  Event (0,8): Actions{1}
    Action (603,1): Code[18 lines]
if instance_number(obj_player) > 0 {
  if distance_to_object(obj_player) < 30 and hspeed != 0 {
    hold = hspeed;
    hspeed = 0;
    image_speed = 0;
    image_index = 4;
  } else if distance_to_object(obj_player) >= 40 and hspeed == 0 {
    hspeed = hold;
    hold = 0;
    image_speed = 0.3;
    image_index = 0;
  }
}

if image_index > 3 and hspeed != 0
  image_index = 0;
  
draw_sprite_ext(sprite_index,image_index,x,y,image_xscale,image_yscale,image_angle,image_blend,image_alpha);
