Events{6}
  Event (0,0): Actions{1}
    Action (603,1): Code[3 lines]
hspeed = 1;
image_speed = 4/30;
store = 1;
  Event (0,3): Actions{1}
    Action (603,1): Code[16 lines]
if hspeed != 0 and place_meeting(x,y - 1,obj_player)
  {
  store = hspeed;
  hspeed = 0;
  image_index = 2;
  image_speed = 0;
  }
  
if hspeed == 0 and !place_meeting(x,y - 1,obj_player)
  {
  hspeed = store;
  image_speed = 4/30;
  }
  
if hspeed != 0
  image_xscale = sign(hspeed);
  Event (1,3): Actions{1}
    Action (603,1): Code[2 lines]
if hspeed != 0 and image_index == 2
  image_index = 0;
  Event (obj_block,4): Actions{1}
    Action (603,1): Code[3 lines]
hspeed = -hspeed;
if place_meeting(x + hspeed,y,obj_player)
  obj_player.x += (hspeed * 2);
  Event (obj_player,4): Actions{1}
    Action (603,1): Code[5 lines]
if place_meeting(x + hspeed,y,obj_player) {
  move_outside_all(90 + (sign(hspeed) * 90),abs(hspeed) + 4);
  hspeed *= -1;
  hurt(40);
}
  Event (obj_enturn,4): Actions{1}
    Action (603,1): Code[3 lines]
hspeed = -hspeed;
if place_meeting(x + hspeed,y,obj_player)
  obj_player.x += (hspeed * 2);
