Events{6}
  Event (0,0): Actions{1}
    Action (603,1): Code[13 lines]
vspeed = -1;
image_speed = 0.15;

typ = part_type_create();
part_type_color1(typ,c_ability);
part_type_alpha3(typ,1,1,0);
part_type_life(typ,10,15);
part_type_speed(typ,2,3,0,0);
part_type_direction(typ,0,359,0,0);
part_type_shape(typ,pt_shape_star);
part_type_size(typ,8 / 64,20 / 64,0,0);

set_destroyer( typ );
  Event (0,1): Actions{1}
    Action (603,1): Code[1 lines]
drop(x + 7,y,30,2);
  Event (obj_block,4): Actions{1}
    Action (603,1): Code[3 lines]
vspeed *= -1;
y += vspeed*2;
image_yscale *= -1;
  Event (obj_player,4): Actions{1}
    Action (603,1): Code[11 lines]
if other.y <= y and other.vspeed > 0
  {
  sound_play(snd_hit);
  part_particles_create(global.p_sys,x,y,typ,4);
  instance_destroy();
  player_bounce();
  }
  else
  {
  hurt(30);
  }
  Event (obj_playershot,4): Actions{1}
    Action (603,1): Code[4 lines]
sound_play(snd_hit);
part_particles_create(global.p_sys,x,y,typ,4);
instance_destroy();
with other instance_destroy();
  Event (obj_enturn,4): Actions{1}
    Action (603,1): Code[3 lines]
vspeed *= -1;
y += vspeed*2;
image_yscale *= -1;
