Events{3}
  Event (0,0): Actions{1}
    Action (603,1): Code[1 lines]
alarm[0] = 30;
  Event (0,2): Actions{1}
    Action (603,1): Code[2 lines]
gravity = 0.5;
vspeed = 5;
  Event (1,7): Actions{2}
    Action (203,1): Fields[0]
    Action (603,1): Code[1 lines]
instance_create(x,y,obj_shopcover2);
